EESchema Schematic File Version 4
LIBS:footpedals-cache
EELAYER 26 0
EELAYER END
$Descr A4 11693 8268
encoding utf-8
Sheet 1 1
Title ""
Date ""
Rev ""
Comp ""
Comment1 ""
Comment2 ""
Comment3 ""
Comment4 ""
$EndDescr
$Comp
L Interface_Expansion:MCP23017_SP U2
U 1 1 61586EFE
P 5400 4200
F 0 "U2" H 5400 5478 50  0001 C CNN
F 1 "MCP23017_SP" H 5400 5387 50  0000 C CNN
F 2 "Package_DIP:DIP-28_W7.62mm" H 5600 3200 50  0001 L CNN
F 3 "http://ww1.microchip.com/downloads/en/DeviceDoc/20001952C.pdf" H 5600 3100 50  0001 L CNN
	1    5400 4200
	0    1    1    0   
$EndComp
$Comp
L Interface_Expansion:MCP23017_SP U1
U 1 1 61587056
P 2850 4200
F 0 "U1" H 2850 5478 50  0001 C CNN
F 1 "MCP23017_SP" H 2850 5387 50  0000 C CNN
F 2 "Package_DIP:DIP-28_W7.62mm" H 3050 3200 50  0001 L CNN
F 3 "http://ww1.microchip.com/downloads/en/DeviceDoc/20001952C.pdf" H 3050 3100 50  0001 L CNN
	1    2850 4200
	0    1    1    0   
$EndComp
$Comp
L power:+5V #PWR0149
U 1 1 615D14C3
P 3950 4200
F 0 "#PWR0149" H 3950 4050 50  0001 C CNN
F 1 "+5V" V 3965 4328 50  0000 L CNN
F 2 "" H 3950 4200 50  0001 C CNN
F 3 "" H 3950 4200 50  0001 C CNN
	1    3950 4200
	0    1    1    0   
$EndComp
$Comp
L power:+5V #PWR0150
U 1 1 615D1786
P 6500 4200
F 0 "#PWR0150" H 6500 4050 50  0001 C CNN
F 1 "+5V" V 6515 4328 50  0000 L CNN
F 2 "" H 6500 4200 50  0001 C CNN
F 3 "" H 6500 4200 50  0001 C CNN
	1    6500 4200
	0    1    1    0   
$EndComp
$Comp
L power:GND #PWR0152
U 1 1 615D9AEF
P 1750 4200
F 0 "#PWR0152" H 1750 3950 50  0001 C CNN
F 1 "GND" V 1755 4072 50  0000 R CNN
F 2 "" H 1750 4200 50  0001 C CNN
F 3 "" H 1750 4200 50  0001 C CNN
	1    1750 4200
	0    1    1    0   
$EndComp
$Comp
L power:GND #PWR0153
U 1 1 615D9FF0
P 4300 4200
F 0 "#PWR0153" H 4300 3950 50  0001 C CNN
F 1 "GND" V 4305 4072 50  0000 R CNN
F 2 "" H 4300 4200 50  0001 C CNN
F 3 "" H 4300 4200 50  0001 C CNN
	1    4300 4200
	0    1    1    0   
$EndComp
$Comp
L power:GND #PWR0155
U 1 1 615E201B
P 2250 3500
F 0 "#PWR0155" H 2250 3250 50  0001 C CNN
F 1 "GND" V 2255 3372 50  0000 R CNN
F 2 "" H 2250 3500 50  0001 C CNN
F 3 "" H 2250 3500 50  0001 C CNN
	1    2250 3500
	-1   0    0    1   
$EndComp
$Comp
L power:GND #PWR0156
U 1 1 615F5BF0
P 2150 3500
F 0 "#PWR0156" H 2150 3250 50  0001 C CNN
F 1 "GND" V 2155 3372 50  0000 R CNN
F 2 "" H 2150 3500 50  0001 C CNN
F 3 "" H 2150 3500 50  0001 C CNN
	1    2150 3500
	-1   0    0    1   
$EndComp
$Comp
L power:GND #PWR0157
U 1 1 615F9ACC
P 2050 3500
F 0 "#PWR0157" H 2050 3250 50  0001 C CNN
F 1 "GND" V 2055 3372 50  0000 R CNN
F 2 "" H 2050 3500 50  0001 C CNN
F 3 "" H 2050 3500 50  0001 C CNN
	1    2050 3500
	-1   0    0    1   
$EndComp
$Comp
L power:GND #PWR0160
U 1 1 61605A0C
P 4700 3500
F 0 "#PWR0160" H 4700 3250 50  0001 C CNN
F 1 "GND" V 4705 3372 50  0000 R CNN
F 2 "" H 4700 3500 50  0001 C CNN
F 3 "" H 4700 3500 50  0001 C CNN
	1    4700 3500
	-1   0    0    1   
$EndComp
$Comp
L power:GND #PWR0161
U 1 1 616098E8
P 4800 3500
F 0 "#PWR0161" H 4800 3250 50  0001 C CNN
F 1 "GND" V 4805 3372 50  0000 R CNN
F 2 "" H 4800 3500 50  0001 C CNN
F 3 "" H 4800 3500 50  0001 C CNN
	1    4800 3500
	-1   0    0    1   
$EndComp
$Comp
L power:+5V #PWR0163
U 1 1 6161D6CF
P 4600 3500
F 0 "#PWR0163" H 4600 3350 50  0001 C CNN
F 1 "+5V" V 4615 3628 50  0000 L CNN
F 2 "" H 4600 3500 50  0001 C CNN
F 3 "" H 4600 3500 50  0001 C CNN
	1    4600 3500
	1    0    0    -1  
$EndComp
$Comp
L MCU_Module:Arduino_Nano_v3.x A1
U 1 1 61657796
P 5200 1750
F 0 "A1" H 5200 664 50  0001 C CNN
F 1 "Arduino Nano v3" H 5200 573 50  0000 C CNN
F 2 "Module:Arduino_Nano" H 5350 800 50  0001 L CNN
F 3 "http://www.mouser.com/pdfdocs/Gravitech_Arduino_Nano3_0.pdf" H 5200 750 50  0001 C CNN
	1    5200 1750
	1    0    0    -1  
$EndComp
$Comp
L power:+5V #PWR0167
U 1 1 6167B981
P 5100 750
F 0 "#PWR0167" H 5100 600 50  0001 C CNN
F 1 "+5V" V 5115 878 50  0000 L CNN
F 2 "" H 5100 750 50  0001 C CNN
F 3 "" H 5100 750 50  0001 C CNN
	1    5100 750 
	1    0    0    -1  
$EndComp
$Comp
L power:GND #PWR0168
U 1 1 61687AB7
P 5300 2750
F 0 "#PWR0168" H 5300 2500 50  0001 C CNN
F 1 "GND" V 5305 2622 50  0000 R CNN
F 2 "" H 5300 2750 50  0001 C CNN
F 3 "" H 5300 2750 50  0001 C CNN
	1    5300 2750
	1    0    0    -1  
$EndComp
$Comp
L power:GND #PWR0169
U 1 1 6169379E
P 5200 2750
F 0 "#PWR0169" H 5200 2500 50  0001 C CNN
F 1 "GND" V 5205 2622 50  0000 R CNN
F 2 "" H 5200 2750 50  0001 C CNN
F 3 "" H 5200 2750 50  0001 C CNN
	1    5200 2750
	1    0    0    -1  
$EndComp
$Comp
L Connector:Conn_01x02_Male J7
U 1 1 61709826
P 1950 2450
F 0 "J7" H 2056 2628 50  0001 C CNN
F 1 "- 5V +" H 2056 2537 50  0000 C CNN
F 2 "Connector_JST:JST_XH_B02B-XH-A_1x02_P2.50mm_Vertical" H 1950 2450 50  0001 C CNN
F 3 "~" H 1950 2450 50  0001 C CNN
	1    1950 2450
	1    0    0    -1  
$EndComp
$Comp
L power:+5V #PWR0178
U 1 1 617099D3
P 2150 2450
F 0 "#PWR0178" H 2150 2300 50  0001 C CNN
F 1 "+5V" H 2165 2623 50  0000 C CNN
F 2 "" H 2150 2450 50  0001 C CNN
F 3 "" H 2150 2450 50  0001 C CNN
	1    2150 2450
	0    1    1    0   
$EndComp
$Comp
L power:GND #PWR0179
U 1 1 61709AC2
P 2150 2550
F 0 "#PWR0179" H 2150 2300 50  0001 C CNN
F 1 "GND" H 2155 2377 50  0000 C CNN
F 2 "" H 2150 2550 50  0001 C CNN
F 3 "" H 2150 2550 50  0001 C CNN
	1    2150 2550
	0    -1   -1   0   
$EndComp
$Comp
L Connector:Conn_01x03_Male J6
U 1 1 6170AC52
P 1950 1950
F 0 "J6" H 2056 2228 50  0001 C CNN
F 1 "MIDI OUT" H 2056 2137 50  0000 C CNN
F 2 "Connector_JST:JST_XH_B03B-XH-A_1x03_P2.50mm_Vertical" H 1950 1950 50  0001 C CNN
F 3 "~" H 1950 1950 50  0001 C CNN
	1    1950 1950
	1    0    0    -1  
$EndComp
$Comp
L Device:R_Small R53
U 1 1 61710469
P 2250 1950
F 0 "R53" H 2309 1996 50  0001 L CNN
F 1 "220" H 2309 1905 50  0000 L CNN
F 2 "Resistor_THT:R_Axial_DIN0204_L3.6mm_D1.6mm_P5.08mm_Horizontal" H 2250 1950 50  0001 C CNN
F 3 "~" H 2250 1950 50  0001 C CNN
	1    2250 1950
	0    -1   -1   0   
$EndComp
$Comp
L Device:R_Small R52
U 1 1 61714BFC
P 2250 1850
F 0 "R52" H 2309 1896 50  0001 L CNN
F 1 "220" H 2309 1805 50  0000 L CNN
F 2 "Resistor_THT:R_Axial_DIN0204_L3.6mm_D1.6mm_P5.08mm_Horizontal" H 2250 1850 50  0001 C CNN
F 3 "~" H 2250 1850 50  0001 C CNN
	1    2250 1850
	0    -1   -1   0   
$EndComp
$Comp
L power:+5V #PWR0180
U 1 1 6172B3CD
P 2350 1850
F 0 "#PWR0180" H 2350 1700 50  0001 C CNN
F 1 "+5V" V 2365 1978 50  0000 L CNN
F 2 "" H 2350 1850 50  0001 C CNN
F 3 "" H 2350 1850 50  0001 C CNN
	1    2350 1850
	0    1    1    0   
$EndComp
$Comp
L power:GND #PWR0181
U 1 1 617539FD
P 2150 2050
F 0 "#PWR0181" H 2150 1800 50  0001 C CNN
F 1 "GND" V 2155 1922 50  0000 R CNN
F 2 "" H 2150 2050 50  0001 C CNN
F 3 "" H 2150 2050 50  0001 C CNN
	1    2150 2050
	0    -1   -1   0   
$EndComp
$Comp
L power:+5V #PWR0101
U 1 1 616D02BF
P 2750 3500
F 0 "#PWR0101" H 2750 3350 50  0001 C CNN
F 1 "+5V" V 2765 3628 50  0000 L CNN
F 2 "" H 2750 3500 50  0001 C CNN
F 3 "" H 2750 3500 50  0001 C CNN
	1    2750 3500
	1    0    0    -1  
$EndComp
$Comp
L power:+5V #PWR0102
U 1 1 616D9990
P 5300 3500
F 0 "#PWR0102" H 5300 3350 50  0001 C CNN
F 1 "+5V" V 5315 3628 50  0000 L CNN
F 2 "" H 5300 3500 50  0001 C CNN
F 3 "" H 5300 3500 50  0001 C CNN
	1    5300 3500
	1    0    0    -1  
$EndComp
$Comp
L Device:R_Network08 RN4
U 1 1 6170C788
P 5800 5400
F 0 "RN4" H 5320 5400 50  0000 R CNN
F 1 "R_Network08" H 5320 5445 50  0001 R CNN
F 2 "Resistor_THT:R_Array_SIP9" V 6275 5400 50  0001 C CNN
F 3 "http://www.vishay.com/docs/31509/csc.pdf" H 5800 5400 50  0001 C CNN
	1    5800 5400
	-1   0    0    1   
$EndComp
$Comp
L Device:R_Network08 RN2
U 1 1 6170C99C
P 3250 5400
F 0 "RN2" H 2770 5400 50  0000 R CNN
F 1 "R_Network08" H 2770 5445 50  0001 R CNN
F 2 "Resistor_THT:R_Array_SIP9" V 3725 5400 50  0001 C CNN
F 3 "http://www.vishay.com/docs/31509/csc.pdf" H 3250 5400 50  0001 C CNN
	1    3250 5400
	-1   0    0    1   
$EndComp
$Comp
L Device:R_Network08 RN1
U 1 1 6170F02D
P 2450 5400
F 0 "RN1" H 1970 5400 50  0000 R CNN
F 1 "R_Network08" H 1970 5445 50  0001 R CNN
F 2 "Resistor_THT:R_Array_SIP9" V 2925 5400 50  0001 C CNN
F 3 "http://www.vishay.com/docs/31509/csc.pdf" H 2450 5400 50  0001 C CNN
	1    2450 5400
	1    0    0    1   
$EndComp
$Comp
L Device:R_Network08 RN3
U 1 1 61710BED
P 5000 5400
F 0 "RN3" H 4520 5400 50  0000 R CNN
F 1 "R_Network08" H 4520 5445 50  0001 R CNN
F 2 "Resistor_THT:R_Array_SIP9" V 5475 5400 50  0001 C CNN
F 3 "http://www.vishay.com/docs/31509/csc.pdf" H 5000 5400 50  0001 C CNN
	1    5000 5400
	1    0    0    1   
$EndComp
$Comp
L power:+5V #PWR0103
U 1 1 617115FB
P 3650 5600
F 0 "#PWR0103" H 3650 5450 50  0001 C CNN
F 1 "+5V" V 3665 5728 50  0000 L CNN
F 2 "" H 3650 5600 50  0001 C CNN
F 3 "" H 3650 5600 50  0001 C CNN
	1    3650 5600
	-1   0    0    1   
$EndComp
$Comp
L power:+5V #PWR0104
U 1 1 61715561
P 2050 5600
F 0 "#PWR0104" H 2050 5450 50  0001 C CNN
F 1 "+5V" V 2065 5728 50  0000 L CNN
F 2 "" H 2050 5600 50  0001 C CNN
F 3 "" H 2050 5600 50  0001 C CNN
	1    2050 5600
	-1   0    0    1   
$EndComp
$Comp
L power:+5V #PWR0105
U 1 1 61715E6A
P 4600 5600
F 0 "#PWR0105" H 4600 5450 50  0001 C CNN
F 1 "+5V" V 4615 5728 50  0000 L CNN
F 2 "" H 4600 5600 50  0001 C CNN
F 3 "" H 4600 5600 50  0001 C CNN
	1    4600 5600
	-1   0    0    1   
$EndComp
$Comp
L power:+5V #PWR0106
U 1 1 617167BE
P 6200 5600
F 0 "#PWR0106" H 6200 5450 50  0001 C CNN
F 1 "+5V" V 6215 5728 50  0000 L CNN
F 2 "" H 6200 5600 50  0001 C CNN
F 3 "" H 6200 5600 50  0001 C CNN
	1    6200 5600
	-1   0    0    1   
$EndComp
$Comp
L Connector:Conn_01x09_Male J4
U 1 1 6171B0C6
P 5800 5000
F 0 "J4" V 5726 4976 50  0000 C CNN
F 1 "Conn_01x09_Male" V 5726 4976 50  0001 C CNN
F 2 "Connector_PinHeader_2.54mm:PinHeader_1x09_P2.54mm_Vertical" H 5800 5000 50  0001 C CNN
F 3 "~" H 5800 5000 50  0001 C CNN
	1    5800 5000
	0    1    1    0   
$EndComp
$Comp
L Connector:Conn_01x09_Male J3
U 1 1 6171B3E3
P 4900 5000
F 0 "J3" V 4826 4976 50  0000 C CNN
F 1 "Conn_01x09_Male" V 4826 4976 50  0001 C CNN
F 2 "Connector_PinHeader_2.54mm:PinHeader_1x09_P2.54mm_Vertical" H 4900 5000 50  0001 C CNN
F 3 "~" H 4900 5000 50  0001 C CNN
	1    4900 5000
	0    1    1    0   
$EndComp
$Comp
L Connector:Conn_01x09_Male J2
U 1 1 6171B4C0
P 3250 5000
F 0 "J2" V 3176 4976 50  0000 C CNN
F 1 "Conn_01x09_Male" V 3176 4976 50  0001 C CNN
F 2 "Connector_PinHeader_2.54mm:PinHeader_1x09_P2.54mm_Vertical" H 3250 5000 50  0001 C CNN
F 3 "~" H 3250 5000 50  0001 C CNN
	1    3250 5000
	0    1    1    0   
$EndComp
$Comp
L Connector:Conn_01x09_Male J1
U 1 1 6171B54B
P 2350 5000
F 0 "J1" V 2276 4976 50  0000 C CNN
F 1 "Conn_01x09_Male" V 2276 4976 50  0001 C CNN
F 2 "Connector_PinHeader_2.54mm:PinHeader_1x09_P2.54mm_Vertical" H 2350 5000 50  0001 C CNN
F 3 "~" H 2350 5000 50  0001 C CNN
	1    2350 5000
	0    1    1    0   
$EndComp
$Comp
L power:GND #PWR0107
U 1 1 6171B629
P 1950 5200
F 0 "#PWR0107" H 1950 4950 50  0001 C CNN
F 1 "GND" V 1955 5072 50  0000 R CNN
F 2 "" H 1950 5200 50  0001 C CNN
F 3 "" H 1950 5200 50  0001 C CNN
	1    1950 5200
	1    0    0    -1  
$EndComp
$Comp
L power:GND #PWR0108
U 1 1 6171B8DE
P 4500 5200
F 0 "#PWR0108" H 4500 4950 50  0001 C CNN
F 1 "GND" V 4505 5072 50  0000 R CNN
F 2 "" H 4500 5200 50  0001 C CNN
F 3 "" H 4500 5200 50  0001 C CNN
	1    4500 5200
	1    0    0    -1  
$EndComp
$Comp
L power:GND #PWR0109
U 1 1 6171B95C
P 2850 5200
F 0 "#PWR0109" H 2850 4950 50  0001 C CNN
F 1 "GND" V 2855 5072 50  0000 R CNN
F 2 "" H 2850 5200 50  0001 C CNN
F 3 "" H 2850 5200 50  0001 C CNN
	1    2850 5200
	1    0    0    -1  
$EndComp
$Comp
L power:GND #PWR0110
U 1 1 6171B9DA
P 5400 5200
F 0 "#PWR0110" H 5400 4950 50  0001 C CNN
F 1 "GND" V 5405 5072 50  0000 R CNN
F 2 "" H 5400 5200 50  0001 C CNN
F 3 "" H 5400 5200 50  0001 C CNN
	1    5400 5200
	1    0    0    -1  
$EndComp
Wire Wire Line
	3650 4900 3650 5200
Connection ~ 3650 5200
Wire Wire Line
	3550 5200 3550 4900
Connection ~ 3550 5200
Wire Wire Line
	3450 5200 3450 4900
Connection ~ 3450 5200
Wire Wire Line
	3350 5200 3350 4900
Connection ~ 3350 5200
Wire Wire Line
	3250 5200 3250 4900
Connection ~ 3250 5200
Wire Wire Line
	3150 5200 3150 4900
Connection ~ 3150 5200
Wire Wire Line
	3050 5200 3050 4900
Connection ~ 3050 5200
Wire Wire Line
	2950 5200 2950 4900
Connection ~ 2950 5200
Wire Wire Line
	2750 5200 2750 4900
Connection ~ 2750 5200
Wire Wire Line
	2650 5200 2650 4900
Connection ~ 2650 5200
Wire Wire Line
	2550 5200 2550 4900
Connection ~ 2550 5200
Wire Wire Line
	2450 5200 2450 4900
Connection ~ 2450 5200
Wire Wire Line
	2350 5200 2350 4900
Connection ~ 2350 5200
Wire Wire Line
	2250 5200 2250 4900
Connection ~ 2250 5200
Wire Wire Line
	2150 5200 2150 4900
Connection ~ 2150 5200
Wire Wire Line
	2050 5200 2050 4900
Connection ~ 2050 5200
Wire Wire Line
	5300 5200 5300 4900
Connection ~ 5300 5200
Wire Wire Line
	5200 5200 5200 4900
Connection ~ 5200 5200
Wire Wire Line
	5100 5200 5100 4900
Connection ~ 5100 5200
Wire Wire Line
	5000 5200 5000 4900
Connection ~ 5000 5200
Wire Wire Line
	4900 5200 4900 4900
Connection ~ 4900 5200
Wire Wire Line
	4800 5200 4800 4900
Connection ~ 4800 5200
Wire Wire Line
	4700 5200 4700 4900
Connection ~ 4700 5200
Wire Wire Line
	4600 5200 4600 4900
Connection ~ 4600 5200
Wire Wire Line
	6200 5200 6200 4900
Connection ~ 6200 5200
Wire Wire Line
	6100 5200 6100 4900
Connection ~ 6100 5200
Wire Wire Line
	6000 5200 6000 4900
Connection ~ 6000 5200
Wire Wire Line
	5900 5200 5900 4900
Connection ~ 5900 5200
Wire Wire Line
	5800 5200 5800 4900
Connection ~ 5800 5200
Wire Wire Line
	5700 5200 5700 4900
Connection ~ 5700 5200
Wire Wire Line
	5600 5200 5600 4900
Connection ~ 5600 5200
Wire Wire Line
	5500 5200 5500 4900
Connection ~ 5500 5200
$Comp
L Isolator:4N35 U3
U 1 1 61728821
P 2150 1300
F 0 "U3" H 2150 1625 50  0001 C CNN
F 1 "4N35" H 2150 1533 50  0000 C CNN
F 2 "Package_DIP:DIP-6_W7.62mm" H 1950 1100 50  0001 L CIN
F 3 "https://www.vishay.com/docs/81181/4n35.pdf" H 2150 1300 50  0001 L CNN
	1    2150 1300
	1    0    0    -1  
$EndComp
$Comp
L Diode:1N914 D1
U 1 1 6172A240
P 1700 1200
F 0 "D1" H 1700 984 50  0001 C CNN
F 1 "1N914" H 1700 1076 50  0000 C CNN
F 2 "Diode_THT:D_DO-35_SOD27_P7.62mm_Horizontal" H 1700 1025 50  0001 C CNN
F 3 "http://www.vishay.com/docs/85622/1n914.pdf" H 1700 1200 50  0001 C CNN
	1    1700 1200
	-1   0    0    1   
$EndComp
$Comp
L Device:R_Small R1
U 1 1 6172A33E
P 1450 1200
F 0 "R1" H 1509 1246 50  0001 L CNN
F 1 "220" H 1509 1155 50  0000 L CNN
F 2 "Resistor_THT:R_Axial_DIN0204_L3.6mm_D1.6mm_P5.08mm_Horizontal" H 1450 1200 50  0001 C CNN
F 3 "~" H 1450 1200 50  0001 C CNN
	1    1450 1200
	0    -1   -1   0   
$EndComp
$Comp
L Connector:Conn_01x03_Male J5
U 1 1 6172B015
P 1150 1200
F 0 "J5" H 1256 1478 50  0001 C CNN
F 1 "MIDI IN" H 1256 1387 50  0000 C CNN
F 2 "Connector_JST:JST_XH_B03B-XH-A_1x03_P2.50mm_Vertical" H 1150 1200 50  0001 C CNN
F 3 "~" H 1150 1200 50  0001 C CNN
	1    1150 1200
	1    0    0    -1  
$EndComp
Wire Wire Line
	1350 1100 1850 1100
Wire Wire Line
	1850 1100 1850 1200
Connection ~ 1850 1200
Wire Wire Line
	1850 1400 1550 1400
Wire Wire Line
	1550 1400 1550 1200
Connection ~ 1550 1200
$Comp
L Device:R_Small R2
U 1 1 6172FA0F
P 2550 1200
F 0 "R2" H 2609 1246 50  0001 L CNN
F 1 "10K" H 2609 1155 50  0000 L CNN
F 2 "Resistor_THT:R_Axial_DIN0204_L3.6mm_D1.6mm_P5.08mm_Horizontal" H 2550 1200 50  0001 C CNN
F 3 "~" H 2550 1200 50  0001 C CNN
	1    2550 1200
	1    0    0    -1  
$EndComp
$Comp
L power:GND #PWR0111
U 1 1 6173604F
P 2450 1400
F 0 "#PWR0111" H 2450 1150 50  0001 C CNN
F 1 "GND" V 2455 1272 50  0000 R CNN
F 2 "" H 2450 1400 50  0001 C CNN
F 3 "" H 2450 1400 50  0001 C CNN
	1    2450 1400
	0    -1   -1   0   
$EndComp
Wire Wire Line
	2450 1300 2550 1300
$Comp
L power:+5V #PWR0112
U 1 1 61738DB7
P 2550 1100
F 0 "#PWR0112" H 2550 950 50  0001 C CNN
F 1 "+5V" V 2565 1228 50  0000 L CNN
F 2 "" H 2550 1100 50  0001 C CNN
F 3 "" H 2550 1100 50  0001 C CNN
	1    2550 1100
	1    0    0    -1  
$EndComp
Text GLabel 2650 1300 2    50   Input ~ 0
Rx
Text GLabel 2350 1950 2    50   Input ~ 0
Tx
Text GLabel 4700 1150 0    50   Input ~ 0
Rx
Text GLabel 4700 1250 0    50   Input ~ 0
Tx
Wire Wire Line
	2550 1300 2650 1300
Connection ~ 2550 1300
Text GLabel 5700 2150 2    50   Input ~ 0
SDA
Text GLabel 5700 2250 2    50   Input ~ 0
SCK
Text GLabel 6200 3500 1    50   Input ~ 0
SDA
Text GLabel 6100 3500 1    50   Input ~ 0
SCK
Text GLabel 3650 3500 1    50   Input ~ 0
SDA
Text GLabel 3550 3500 1    50   Input ~ 0
SCK
$EndSCHEMATC
