G04 #@! TF.GenerationSoftware,KiCad,Pcbnew,5.0.2+dfsg1-1*
G04 #@! TF.CreationDate,2021-10-21T00:58:24+02:00*
G04 #@! TF.ProjectId,power,706f7765-722e-46b6-9963-61645f706362,rev?*
G04 #@! TF.SameCoordinates,Original*
G04 #@! TF.FileFunction,Soldermask,Bot*
G04 #@! TF.FilePolarity,Negative*
%FSLAX46Y46*%
G04 Gerber Fmt 4.6, Leading zero omitted, Abs format (unit mm)*
G04 Created by KiCad (PCBNEW 5.0.2+dfsg1-1) date Thu 21 Oct 2021 12:58:24 AM CEST*
%MOMM*%
%LPD*%
G01*
G04 APERTURE LIST*
%ADD10C,0.100000*%
G04 APERTURE END LIST*
D10*
G36*
X104007256Y-112564298D02*
X104113579Y-112585447D01*
X104414042Y-112709903D01*
X104656967Y-112872221D01*
X104684454Y-112890587D01*
X104914413Y-113120546D01*
X105095098Y-113390960D01*
X105219553Y-113691422D01*
X105283000Y-114010389D01*
X105283000Y-114335611D01*
X105219553Y-114654578D01*
X105095098Y-114955040D01*
X104914413Y-115225454D01*
X104684454Y-115455413D01*
X104684451Y-115455415D01*
X104414042Y-115636097D01*
X104113579Y-115760553D01*
X104007256Y-115781702D01*
X103794611Y-115824000D01*
X103469389Y-115824000D01*
X103256744Y-115781702D01*
X103150421Y-115760553D01*
X102849958Y-115636097D01*
X102579549Y-115455415D01*
X102579546Y-115455413D01*
X102349587Y-115225454D01*
X102168902Y-114955040D01*
X102044447Y-114654578D01*
X101981000Y-114335611D01*
X101981000Y-114010389D01*
X102044447Y-113691422D01*
X102168902Y-113390960D01*
X102349587Y-113120546D01*
X102579546Y-112890587D01*
X102607033Y-112872221D01*
X102849958Y-112709903D01*
X103150421Y-112585447D01*
X103256744Y-112564298D01*
X103469389Y-112522000D01*
X103794611Y-112522000D01*
X104007256Y-112564298D01*
X104007256Y-112564298D01*
G37*
G36*
X111766442Y-112730518D02*
X111832627Y-112737037D01*
X111945853Y-112771384D01*
X112002467Y-112788557D01*
X112141087Y-112862652D01*
X112158991Y-112872222D01*
X112194729Y-112901552D01*
X112296186Y-112984814D01*
X112379448Y-113086271D01*
X112408778Y-113122009D01*
X112408779Y-113122011D01*
X112492443Y-113278533D01*
X112492443Y-113278534D01*
X112543963Y-113448373D01*
X112561359Y-113625000D01*
X112543963Y-113801627D01*
X112509616Y-113914853D01*
X112492443Y-113971467D01*
X112471638Y-114010389D01*
X112408778Y-114127991D01*
X112379448Y-114163729D01*
X112296186Y-114265186D01*
X112194729Y-114348448D01*
X112158991Y-114377778D01*
X112158989Y-114377779D01*
X112002467Y-114461443D01*
X111945853Y-114478616D01*
X111832627Y-114512963D01*
X111766442Y-114519482D01*
X111700260Y-114526000D01*
X111311740Y-114526000D01*
X111245558Y-114519482D01*
X111179373Y-114512963D01*
X111066147Y-114478616D01*
X111009533Y-114461443D01*
X110853011Y-114377779D01*
X110853009Y-114377778D01*
X110817271Y-114348448D01*
X110715814Y-114265186D01*
X110632552Y-114163729D01*
X110603222Y-114127991D01*
X110540362Y-114010389D01*
X110519557Y-113971467D01*
X110502384Y-113914853D01*
X110468037Y-113801627D01*
X110450641Y-113625000D01*
X110468037Y-113448373D01*
X110519557Y-113278534D01*
X110519557Y-113278533D01*
X110603221Y-113122011D01*
X110603222Y-113122009D01*
X110632552Y-113086271D01*
X110715814Y-112984814D01*
X110817271Y-112901552D01*
X110853009Y-112872222D01*
X110870913Y-112862652D01*
X111009533Y-112788557D01*
X111066147Y-112771384D01*
X111179373Y-112737037D01*
X111245558Y-112730518D01*
X111311740Y-112724000D01*
X111700260Y-112724000D01*
X111766442Y-112730518D01*
X111766442Y-112730518D01*
G37*
G36*
X112414600Y-110227989D02*
X112447649Y-110238014D01*
X112478106Y-110254294D01*
X112504799Y-110276201D01*
X112526706Y-110302894D01*
X112542986Y-110333351D01*
X112553011Y-110366400D01*
X112557000Y-110406904D01*
X112557000Y-111843096D01*
X112553011Y-111883600D01*
X112542986Y-111916649D01*
X112526706Y-111947106D01*
X112504799Y-111973799D01*
X112478106Y-111995706D01*
X112447649Y-112011986D01*
X112414600Y-112022011D01*
X112374096Y-112026000D01*
X110637904Y-112026000D01*
X110597400Y-112022011D01*
X110564351Y-112011986D01*
X110533894Y-111995706D01*
X110507201Y-111973799D01*
X110485294Y-111947106D01*
X110469014Y-111916649D01*
X110458989Y-111883600D01*
X110455000Y-111843096D01*
X110455000Y-110406904D01*
X110458989Y-110366400D01*
X110469014Y-110333351D01*
X110485294Y-110302894D01*
X110507201Y-110276201D01*
X110533894Y-110254294D01*
X110564351Y-110238014D01*
X110597400Y-110227989D01*
X110637904Y-110224000D01*
X112374096Y-110224000D01*
X112414600Y-110227989D01*
X112414600Y-110227989D01*
G37*
G36*
X111639442Y-103332518D02*
X111705627Y-103339037D01*
X111818853Y-103373384D01*
X111875467Y-103390557D01*
X112014087Y-103464652D01*
X112031991Y-103474222D01*
X112067729Y-103503552D01*
X112169186Y-103586814D01*
X112252448Y-103688271D01*
X112281778Y-103724009D01*
X112281779Y-103724011D01*
X112365443Y-103880533D01*
X112365443Y-103880534D01*
X112416963Y-104050373D01*
X112434359Y-104227000D01*
X112416963Y-104403627D01*
X112382616Y-104516853D01*
X112365443Y-104573467D01*
X112291348Y-104712087D01*
X112281778Y-104729991D01*
X112252448Y-104765729D01*
X112169186Y-104867186D01*
X112067729Y-104950448D01*
X112031991Y-104979778D01*
X112031989Y-104979779D01*
X111875467Y-105063443D01*
X111818853Y-105080616D01*
X111705627Y-105114963D01*
X111639443Y-105121481D01*
X111573260Y-105128000D01*
X111184740Y-105128000D01*
X111118557Y-105121481D01*
X111052373Y-105114963D01*
X110939147Y-105080616D01*
X110882533Y-105063443D01*
X110726011Y-104979779D01*
X110726009Y-104979778D01*
X110690271Y-104950448D01*
X110588814Y-104867186D01*
X110505552Y-104765729D01*
X110476222Y-104729991D01*
X110466652Y-104712087D01*
X110392557Y-104573467D01*
X110375384Y-104516853D01*
X110341037Y-104403627D01*
X110323641Y-104227000D01*
X110341037Y-104050373D01*
X110392557Y-103880534D01*
X110392557Y-103880533D01*
X110476221Y-103724011D01*
X110476222Y-103724009D01*
X110505552Y-103688271D01*
X110588814Y-103586814D01*
X110690271Y-103503552D01*
X110726009Y-103474222D01*
X110743913Y-103464652D01*
X110882533Y-103390557D01*
X110939147Y-103373384D01*
X111052373Y-103339037D01*
X111118558Y-103332518D01*
X111184740Y-103326000D01*
X111573260Y-103326000D01*
X111639442Y-103332518D01*
X111639442Y-103332518D01*
G37*
G36*
X112287600Y-100829989D02*
X112320649Y-100840014D01*
X112351106Y-100856294D01*
X112377799Y-100878201D01*
X112399706Y-100904894D01*
X112415986Y-100935351D01*
X112426011Y-100968400D01*
X112430000Y-101008904D01*
X112430000Y-102445096D01*
X112426011Y-102485600D01*
X112415986Y-102518649D01*
X112399706Y-102549106D01*
X112377799Y-102575799D01*
X112351106Y-102597706D01*
X112320649Y-102613986D01*
X112287600Y-102624011D01*
X112247096Y-102628000D01*
X110510904Y-102628000D01*
X110470400Y-102624011D01*
X110437351Y-102613986D01*
X110406894Y-102597706D01*
X110380201Y-102575799D01*
X110358294Y-102549106D01*
X110342014Y-102518649D01*
X110331989Y-102485600D01*
X110328000Y-102445096D01*
X110328000Y-101008904D01*
X110331989Y-100968400D01*
X110342014Y-100935351D01*
X110358294Y-100904894D01*
X110380201Y-100878201D01*
X110406894Y-100856294D01*
X110437351Y-100840014D01*
X110470400Y-100829989D01*
X110510904Y-100826000D01*
X112247096Y-100826000D01*
X112287600Y-100829989D01*
X112287600Y-100829989D01*
G37*
G36*
X111639442Y-93934518D02*
X111705627Y-93941037D01*
X111818853Y-93975384D01*
X111875467Y-93992557D01*
X112014087Y-94066652D01*
X112031991Y-94076222D01*
X112067729Y-94105552D01*
X112169186Y-94188814D01*
X112252448Y-94290271D01*
X112281778Y-94326009D01*
X112281779Y-94326011D01*
X112365443Y-94482533D01*
X112365443Y-94482534D01*
X112416963Y-94652373D01*
X112434359Y-94829000D01*
X112416963Y-95005627D01*
X112382616Y-95118853D01*
X112365443Y-95175467D01*
X112291348Y-95314087D01*
X112281778Y-95331991D01*
X112252448Y-95367729D01*
X112169186Y-95469186D01*
X112067729Y-95552448D01*
X112031991Y-95581778D01*
X112031989Y-95581779D01*
X111875467Y-95665443D01*
X111818853Y-95682616D01*
X111705627Y-95716963D01*
X111639442Y-95723482D01*
X111573260Y-95730000D01*
X111184740Y-95730000D01*
X111118558Y-95723482D01*
X111052373Y-95716963D01*
X110939147Y-95682616D01*
X110882533Y-95665443D01*
X110726011Y-95581779D01*
X110726009Y-95581778D01*
X110690271Y-95552448D01*
X110588814Y-95469186D01*
X110505552Y-95367729D01*
X110476222Y-95331991D01*
X110466652Y-95314087D01*
X110392557Y-95175467D01*
X110375384Y-95118853D01*
X110341037Y-95005627D01*
X110323641Y-94829000D01*
X110341037Y-94652373D01*
X110392557Y-94482534D01*
X110392557Y-94482533D01*
X110476221Y-94326011D01*
X110476222Y-94326009D01*
X110505552Y-94290271D01*
X110588814Y-94188814D01*
X110690271Y-94105552D01*
X110726009Y-94076222D01*
X110743913Y-94066652D01*
X110882533Y-93992557D01*
X110939147Y-93975384D01*
X111052373Y-93941037D01*
X111118558Y-93934518D01*
X111184740Y-93928000D01*
X111573260Y-93928000D01*
X111639442Y-93934518D01*
X111639442Y-93934518D01*
G37*
G36*
X112287600Y-91431989D02*
X112320649Y-91442014D01*
X112351106Y-91458294D01*
X112377799Y-91480201D01*
X112399706Y-91506894D01*
X112415986Y-91537351D01*
X112426011Y-91570400D01*
X112430000Y-91610904D01*
X112430000Y-93047096D01*
X112426011Y-93087600D01*
X112415986Y-93120649D01*
X112399706Y-93151106D01*
X112377799Y-93177799D01*
X112351106Y-93199706D01*
X112320649Y-93215986D01*
X112287600Y-93226011D01*
X112247096Y-93230000D01*
X110510904Y-93230000D01*
X110470400Y-93226011D01*
X110437351Y-93215986D01*
X110406894Y-93199706D01*
X110380201Y-93177799D01*
X110358294Y-93151106D01*
X110342014Y-93120649D01*
X110331989Y-93087600D01*
X110328000Y-93047096D01*
X110328000Y-91610904D01*
X110331989Y-91570400D01*
X110342014Y-91537351D01*
X110358294Y-91506894D01*
X110380201Y-91480201D01*
X110406894Y-91458294D01*
X110437351Y-91442014D01*
X110470400Y-91431989D01*
X110510904Y-91428000D01*
X112247096Y-91428000D01*
X112287600Y-91431989D01*
X112287600Y-91431989D01*
G37*
G36*
X111639443Y-84536519D02*
X111705627Y-84543037D01*
X111818853Y-84577384D01*
X111875467Y-84594557D01*
X112014087Y-84668652D01*
X112031991Y-84678222D01*
X112067729Y-84707552D01*
X112169186Y-84790814D01*
X112252448Y-84892271D01*
X112281778Y-84928009D01*
X112281779Y-84928011D01*
X112365443Y-85084533D01*
X112365443Y-85084534D01*
X112416963Y-85254373D01*
X112434359Y-85431000D01*
X112416963Y-85607627D01*
X112382616Y-85720853D01*
X112365443Y-85777467D01*
X112291348Y-85916087D01*
X112281778Y-85933991D01*
X112252448Y-85969729D01*
X112169186Y-86071186D01*
X112067729Y-86154448D01*
X112031991Y-86183778D01*
X112031989Y-86183779D01*
X111875467Y-86267443D01*
X111818853Y-86284616D01*
X111705627Y-86318963D01*
X111639443Y-86325481D01*
X111573260Y-86332000D01*
X111184740Y-86332000D01*
X111118557Y-86325481D01*
X111052373Y-86318963D01*
X110939147Y-86284616D01*
X110882533Y-86267443D01*
X110726011Y-86183779D01*
X110726009Y-86183778D01*
X110690271Y-86154448D01*
X110588814Y-86071186D01*
X110505552Y-85969729D01*
X110476222Y-85933991D01*
X110466652Y-85916087D01*
X110392557Y-85777467D01*
X110375384Y-85720853D01*
X110341037Y-85607627D01*
X110323641Y-85431000D01*
X110341037Y-85254373D01*
X110392557Y-85084534D01*
X110392557Y-85084533D01*
X110476221Y-84928011D01*
X110476222Y-84928009D01*
X110505552Y-84892271D01*
X110588814Y-84790814D01*
X110690271Y-84707552D01*
X110726009Y-84678222D01*
X110743913Y-84668652D01*
X110882533Y-84594557D01*
X110939147Y-84577384D01*
X111052373Y-84543037D01*
X111118557Y-84536519D01*
X111184740Y-84530000D01*
X111573260Y-84530000D01*
X111639443Y-84536519D01*
X111639443Y-84536519D01*
G37*
G36*
X112287600Y-82033989D02*
X112320649Y-82044014D01*
X112351106Y-82060294D01*
X112377799Y-82082201D01*
X112399706Y-82108894D01*
X112415986Y-82139351D01*
X112426011Y-82172400D01*
X112430000Y-82212904D01*
X112430000Y-83649096D01*
X112426011Y-83689600D01*
X112415986Y-83722649D01*
X112399706Y-83753106D01*
X112377799Y-83779799D01*
X112351106Y-83801706D01*
X112320649Y-83817986D01*
X112287600Y-83828011D01*
X112247096Y-83832000D01*
X110510904Y-83832000D01*
X110470400Y-83828011D01*
X110437351Y-83817986D01*
X110406894Y-83801706D01*
X110380201Y-83779799D01*
X110358294Y-83753106D01*
X110342014Y-83722649D01*
X110331989Y-83689600D01*
X110328000Y-83649096D01*
X110328000Y-82212904D01*
X110331989Y-82172400D01*
X110342014Y-82139351D01*
X110358294Y-82108894D01*
X110380201Y-82082201D01*
X110406894Y-82060294D01*
X110437351Y-82044014D01*
X110470400Y-82033989D01*
X110510904Y-82030000D01*
X112247096Y-82030000D01*
X112287600Y-82033989D01*
X112287600Y-82033989D01*
G37*
G36*
X111639443Y-75138519D02*
X111705627Y-75145037D01*
X111818853Y-75179384D01*
X111875467Y-75196557D01*
X112014087Y-75270652D01*
X112031991Y-75280222D01*
X112067729Y-75309552D01*
X112169186Y-75392814D01*
X112252448Y-75494271D01*
X112281778Y-75530009D01*
X112281779Y-75530011D01*
X112365443Y-75686533D01*
X112365443Y-75686534D01*
X112416963Y-75856373D01*
X112434359Y-76033000D01*
X112416963Y-76209627D01*
X112382616Y-76322853D01*
X112365443Y-76379467D01*
X112291348Y-76518087D01*
X112281778Y-76535991D01*
X112252448Y-76571729D01*
X112169186Y-76673186D01*
X112067729Y-76756448D01*
X112031991Y-76785778D01*
X112031989Y-76785779D01*
X111875467Y-76869443D01*
X111818853Y-76886616D01*
X111705627Y-76920963D01*
X111639442Y-76927482D01*
X111573260Y-76934000D01*
X111184740Y-76934000D01*
X111118558Y-76927482D01*
X111052373Y-76920963D01*
X110939147Y-76886616D01*
X110882533Y-76869443D01*
X110726011Y-76785779D01*
X110726009Y-76785778D01*
X110690271Y-76756448D01*
X110588814Y-76673186D01*
X110505552Y-76571729D01*
X110476222Y-76535991D01*
X110466652Y-76518087D01*
X110392557Y-76379467D01*
X110375384Y-76322853D01*
X110341037Y-76209627D01*
X110323641Y-76033000D01*
X110341037Y-75856373D01*
X110392557Y-75686534D01*
X110392557Y-75686533D01*
X110476221Y-75530011D01*
X110476222Y-75530009D01*
X110505552Y-75494271D01*
X110588814Y-75392814D01*
X110690271Y-75309552D01*
X110726009Y-75280222D01*
X110743913Y-75270652D01*
X110882533Y-75196557D01*
X110939147Y-75179384D01*
X111052373Y-75145037D01*
X111118557Y-75138519D01*
X111184740Y-75132000D01*
X111573260Y-75132000D01*
X111639443Y-75138519D01*
X111639443Y-75138519D01*
G37*
G36*
X104007256Y-71797298D02*
X104113579Y-71818447D01*
X104414042Y-71942903D01*
X104680852Y-72121180D01*
X104684454Y-72123587D01*
X104914413Y-72353546D01*
X105095098Y-72623960D01*
X105130578Y-72709617D01*
X105208195Y-72897000D01*
X105219553Y-72924422D01*
X105283000Y-73243389D01*
X105283000Y-73568611D01*
X105219553Y-73887578D01*
X105102985Y-74169000D01*
X105095097Y-74188042D01*
X104944231Y-74413828D01*
X104914413Y-74458454D01*
X104684454Y-74688413D01*
X104684451Y-74688415D01*
X104414042Y-74869097D01*
X104113579Y-74993553D01*
X104007256Y-75014702D01*
X103794611Y-75057000D01*
X103469389Y-75057000D01*
X103256744Y-75014702D01*
X103150421Y-74993553D01*
X102849958Y-74869097D01*
X102579549Y-74688415D01*
X102579546Y-74688413D01*
X102349587Y-74458454D01*
X102319769Y-74413828D01*
X102168903Y-74188042D01*
X102161016Y-74169000D01*
X102044447Y-73887578D01*
X101981000Y-73568611D01*
X101981000Y-73243389D01*
X102044447Y-72924422D01*
X102055806Y-72897000D01*
X102133422Y-72709617D01*
X102168902Y-72623960D01*
X102349587Y-72353546D01*
X102579546Y-72123587D01*
X102583148Y-72121180D01*
X102849958Y-71942903D01*
X103150421Y-71818447D01*
X103256744Y-71797298D01*
X103469389Y-71755000D01*
X103794611Y-71755000D01*
X104007256Y-71797298D01*
X104007256Y-71797298D01*
G37*
G36*
X112287600Y-72635989D02*
X112320649Y-72646014D01*
X112351106Y-72662294D01*
X112377799Y-72684201D01*
X112399706Y-72710894D01*
X112415986Y-72741351D01*
X112426011Y-72774400D01*
X112430000Y-72814904D01*
X112430000Y-74251096D01*
X112426011Y-74291600D01*
X112415986Y-74324649D01*
X112399706Y-74355106D01*
X112377799Y-74381799D01*
X112351106Y-74403706D01*
X112320649Y-74419986D01*
X112287600Y-74430011D01*
X112247096Y-74434000D01*
X110510904Y-74434000D01*
X110470400Y-74430011D01*
X110437351Y-74419986D01*
X110406894Y-74403706D01*
X110380201Y-74381799D01*
X110358294Y-74355106D01*
X110342014Y-74324649D01*
X110331989Y-74291600D01*
X110328000Y-74251096D01*
X110328000Y-72814904D01*
X110331989Y-72774400D01*
X110342014Y-72741351D01*
X110358294Y-72710894D01*
X110380201Y-72684201D01*
X110406894Y-72662294D01*
X110437351Y-72646014D01*
X110470400Y-72635989D01*
X110510904Y-72632000D01*
X112247096Y-72632000D01*
X112287600Y-72635989D01*
X112287600Y-72635989D01*
G37*
M02*
