EESchema Schematic File Version 4
LIBS:Orgel-cache
EELAYER 26 0
EELAYER END
$Descr A4 11693 8268
encoding utf-8
Sheet 1 1
Title ""
Date ""
Rev ""
Comp ""
Comment1 ""
Comment2 ""
Comment3 ""
Comment4 ""
$EndDescr
$Comp
L power:GND #PWR0101
U 1 1 6157C50F
P 2000 4750
F 0 "#PWR0101" H 2000 4500 50  0001 C CNN
F 1 "GND" H 2005 4577 50  0000 C CNN
F 2 "" H 2000 4750 50  0001 C CNN
F 3 "" H 2000 4750 50  0001 C CNN
	1    2000 4750
	1    0    0    -1  
$EndComp
$Comp
L power:GND #PWR0102
U 1 1 6157C5B1
P 1800 4750
F 0 "#PWR0102" H 1800 4500 50  0001 C CNN
F 1 "GND" H 1805 4577 50  0000 C CNN
F 2 "" H 1800 4750 50  0001 C CNN
F 3 "" H 1800 4750 50  0001 C CNN
	1    1800 4750
	1    0    0    -1  
$EndComp
$Comp
L power:GND #PWR0103
U 1 1 6157C653
P 2200 4750
F 0 "#PWR0103" H 2200 4500 50  0001 C CNN
F 1 "GND" H 2205 4577 50  0000 C CNN
F 2 "" H 2200 4750 50  0001 C CNN
F 3 "" H 2200 4750 50  0001 C CNN
	1    2200 4750
	1    0    0    -1  
$EndComp
$Comp
L power:GND #PWR0105
U 1 1 6157CB29
P 3300 4750
F 0 "#PWR0105" H 3300 4500 50  0001 C CNN
F 1 "GND" H 3305 4577 50  0000 C CNN
F 2 "" H 3300 4750 50  0001 C CNN
F 3 "" H 3300 4750 50  0001 C CNN
	1    3300 4750
	1    0    0    -1  
$EndComp
$Comp
L power:+5V #PWR0106
U 1 1 6157CC42
P 3300 2550
F 0 "#PWR0106" H 3300 2400 50  0001 C CNN
F 1 "+5V" H 3315 2723 50  0000 C CNN
F 2 "" H 3300 2550 50  0001 C CNN
F 3 "" H 3300 2550 50  0001 C CNN
	1    3300 2550
	1    0    0    -1  
$EndComp
$Comp
L power:+5V #PWR0107
U 1 1 6157CD54
P 5650 2850
F 0 "#PWR0107" H 5650 2700 50  0001 C CNN
F 1 "+5V" H 5665 3023 50  0000 C CNN
F 2 "" H 5650 2850 50  0001 C CNN
F 3 "" H 5650 2850 50  0001 C CNN
	1    5650 2850
	0    1    1    0   
$EndComp
$Comp
L power:+5V #PWR0115
U 1 1 6157CFA0
P 6100 3350
F 0 "#PWR0115" H 6100 3200 50  0001 C CNN
F 1 "+5V" H 6115 3523 50  0000 C CNN
F 2 "" H 6100 3350 50  0001 C CNN
F 3 "" H 6100 3350 50  0001 C CNN
	1    6100 3350
	0    1    1    0   
$EndComp
$Comp
L power:+5V #PWR0119
U 1 1 6157E06B
P 2100 4150
F 0 "#PWR0119" H 2100 4000 50  0001 C CNN
F 1 "+5V" H 2115 4323 50  0000 C CNN
F 2 "" H 2100 4150 50  0001 C CNN
F 3 "" H 2100 4150 50  0001 C CNN
	1    2100 4150
	-1   0    0    1   
$EndComp
$Comp
L power:+5V #PWR0120
U 1 1 6157E10D
P 2300 4150
F 0 "#PWR0120" H 2300 4000 50  0001 C CNN
F 1 "+5V" H 2315 4323 50  0000 C CNN
F 2 "" H 2300 4150 50  0001 C CNN
F 3 "" H 2300 4150 50  0001 C CNN
	1    2300 4150
	-1   0    0    1   
$EndComp
$Comp
L power:+5V #PWR0121
U 1 1 6157E15F
P 1900 4150
F 0 "#PWR0121" H 1900 4000 50  0001 C CNN
F 1 "+5V" H 1915 4323 50  0000 C CNN
F 2 "" H 1900 4150 50  0001 C CNN
F 3 "" H 1900 4150 50  0001 C CNN
	1    1900 4150
	-1   0    0    1   
$EndComp
$Comp
L Connector:Conn_01x04_Male J1
U 1 1 6157E630
P 1700 2700
F 0 "J1" H 1806 2978 50  0000 C CNN
F 1 "Conn_01x04_Male" H 1806 2887 50  0000 C CNN
F 2 "Connector_JST:JST_XH_B04B-XH-A_1x04_P2.50mm_Vertical" H 1700 2700 50  0001 C CNN
F 3 "~" H 1700 2700 50  0001 C CNN
	1    1700 2700
	1    0    0    -1  
$EndComp
$Comp
L Connector:Conn_01x04_Male J2
U 1 1 6157E6FB
P 1700 3300
F 0 "J2" H 1806 3578 50  0000 C CNN
F 1 "Conn_01x04_Male" H 1806 3487 50  0000 C CNN
F 2 "Connector_JST:JST_XH_B04B-XH-A_1x04_P2.50mm_Vertical" H 1700 3300 50  0001 C CNN
F 3 "~" H 1700 3300 50  0001 C CNN
	1    1700 3300
	1    0    0    -1  
$EndComp
$Comp
L Connector:Conn_01x12_Male J3
U 1 1 6157EAD0
P 4500 2150
F 0 "J3" V 4335 2077 50  0000 C CNN
F 1 "Conn_01x12_Male" V 4426 2077 50  0000 C CNN
F 2 "Connector_PinHeader_2.54mm:PinHeader_1x12_P2.54mm_Vertical" H 4500 2150 50  0001 C CNN
F 3 "~" H 4500 2150 50  0001 C CNN
	1    4500 2150
	0    -1   1    0   
$EndComp
Wire Wire Line
	4000 2850 5250 2850
Wire Wire Line
	4000 2950 4100 2950
Wire Wire Line
	4000 3050 4200 3050
Wire Wire Line
	4000 3150 4300 3150
Wire Wire Line
	4000 3250 4400 3250
Wire Wire Line
	4000 3350 4500 3350
Wire Wire Line
	4000 3450 4600 3450
Wire Wire Line
	4000 3550 4700 3550
Wire Wire Line
	4000 2850 4000 2350
Wire Wire Line
	4100 2350 4100 2950
Wire Wire Line
	4100 2950 5250 2950
Wire Wire Line
	4200 2350 4200 3050
Wire Wire Line
	4200 3050 5250 3050
Wire Wire Line
	4300 2350 4300 3150
Wire Wire Line
	4300 3150 5250 3150
Wire Wire Line
	4400 2350 4400 3250
Wire Wire Line
	4400 3250 5250 3250
Wire Wire Line
	4500 2350 4500 3350
Wire Wire Line
	4500 3350 5250 3350
Wire Wire Line
	4600 2350 4600 3450
Wire Wire Line
	4600 3450 5250 3450
Wire Wire Line
	4700 2350 4700 3550
Wire Wire Line
	4700 3550 5250 3550
$Comp
L power:+5V #PWR0122
U 1 1 6158E188
P 1900 2600
F 0 "#PWR0122" H 1900 2450 50  0001 C CNN
F 1 "+5V" H 1915 2773 50  0000 C CNN
F 2 "" H 1900 2600 50  0001 C CNN
F 3 "" H 1900 2600 50  0001 C CNN
	1    1900 2600
	0    1    1    0   
$EndComp
$Comp
L power:+5V #PWR0123
U 1 1 6158E255
P 1900 3200
F 0 "#PWR0123" H 1900 3050 50  0001 C CNN
F 1 "+5V" H 1915 3373 50  0000 C CNN
F 2 "" H 1900 3200 50  0001 C CNN
F 3 "" H 1900 3200 50  0001 C CNN
	1    1900 3200
	0    1    1    0   
$EndComp
$Comp
L power:GND #PWR0124
U 1 1 6158E30D
P 1900 2900
F 0 "#PWR0124" H 1900 2650 50  0001 C CNN
F 1 "GND" V 1905 2727 50  0000 C CNN
F 2 "" H 1900 2900 50  0001 C CNN
F 3 "" H 1900 2900 50  0001 C CNN
	1    1900 2900
	0    -1   -1   0   
$EndComp
$Comp
L power:GND #PWR0125
U 1 1 6158E368
P 1900 3500
F 0 "#PWR0125" H 1900 3250 50  0001 C CNN
F 1 "GND" H 1905 3327 50  0000 C CNN
F 2 "" H 1900 3500 50  0001 C CNN
F 3 "" H 1900 3500 50  0001 C CNN
	1    1900 3500
	0    -1   -1   0   
$EndComp
Connection ~ 4700 3550
Connection ~ 4600 3450
Connection ~ 4500 3350
Connection ~ 4400 3250
Connection ~ 4300 3150
Connection ~ 4200 3050
Connection ~ 4100 2950
$Comp
L Connector:Conn_01x02_Male J6
U 1 1 615806FD
P 2300 3950
F 0 "J6" H 2406 4128 50  0000 C CNN
F 1 "Conn_01x02_Male" H 2406 4037 50  0000 C CNN
F 2 "Connector_PinHeader_2.54mm:PinHeader_1x02_P2.54mm_Vertical" H 2300 3950 50  0001 C CNN
F 3 "~" H 2300 3950 50  0001 C CNN
	1    2300 3950
	0    1    1    0   
$EndComp
$Comp
L Connector:Conn_01x02_Male J5
U 1 1 61580F9A
P 2100 3950
F 0 "J5" H 2206 4128 50  0000 C CNN
F 1 "Conn_01x02_Male" H 2206 4037 50  0000 C CNN
F 2 "Connector_PinHeader_2.54mm:PinHeader_1x02_P2.54mm_Vertical" H 2100 3950 50  0001 C CNN
F 3 "~" H 2100 3950 50  0001 C CNN
	1    2100 3950
	0    1    1    0   
$EndComp
$Comp
L Connector:Conn_01x02_Male J4
U 1 1 615816D3
P 1900 3950
F 0 "J4" H 2006 4128 50  0000 C CNN
F 1 "Conn_01x02_Male" H 2006 4037 50  0000 C CNN
F 2 "Connector_PinHeader_2.54mm:PinHeader_1x02_P2.54mm_Vertical" H 1900 3950 50  0001 C CNN
F 3 "~" H 1900 3950 50  0001 C CNN
	1    1900 3950
	0    1    1    0   
$EndComp
Wire Wire Line
	2600 4250 2200 4250
Wire Wire Line
	2200 4250 2200 4150
Wire Wire Line
	2600 4350 2000 4350
Wire Wire Line
	2000 4350 2000 4150
Wire Wire Line
	2600 4450 1800 4450
Wire Wire Line
	1800 4450 1800 4150
$Comp
L Device:R_Small R2
U 1 1 6158E9E0
P 2000 4650
F 0 "R2" V 2196 4650 50  0000 C CNN
F 1 "10K" V 2105 4650 50  0000 C CNN
F 2 "Resistor_THT:R_Axial_DIN0204_L3.6mm_D1.6mm_P5.08mm_Horizontal" H 2000 4650 50  0001 C CNN
F 3 "~" H 2000 4650 50  0001 C CNN
	1    2000 4650
	-1   0    0    1   
$EndComp
$Comp
L Device:R_Small R3
U 1 1 6158F429
P 2200 4650
F 0 "R3" V 2396 4650 50  0000 C CNN
F 1 "10K" V 2305 4650 50  0000 C CNN
F 2 "Resistor_THT:R_Axial_DIN0204_L3.6mm_D1.6mm_P5.08mm_Horizontal" H 2200 4650 50  0001 C CNN
F 3 "~" H 2200 4650 50  0001 C CNN
	1    2200 4650
	-1   0    0    1   
$EndComp
$Comp
L Device:R_Small R1
U 1 1 6158FE89
P 1800 4650
F 0 "R1" V 1996 4650 50  0000 C CNN
F 1 "10K" V 1905 4650 50  0000 C CNN
F 2 "Resistor_THT:R_Axial_DIN0204_L3.6mm_D1.6mm_P5.08mm_Horizontal" H 1800 4650 50  0001 C CNN
F 3 "~" H 1800 4650 50  0001 C CNN
	1    1800 4650
	-1   0    0    1   
$EndComp
Wire Wire Line
	2200 4550 2200 4250
Connection ~ 2200 4250
Wire Wire Line
	2000 4550 2000 4350
Connection ~ 2000 4350
Wire Wire Line
	1800 4550 1800 4450
Wire Wire Line
	4000 3950 4900 3950
Wire Wire Line
	4800 2350 4800 4050
Wire Wire Line
	4000 4050 4800 4050
Connection ~ 4800 4050
Wire Wire Line
	4900 2350 4900 3950
Connection ~ 4900 3950
Wire Wire Line
	5000 2350 5000 3850
Wire Wire Line
	4000 3850 5000 3850
Connection ~ 5000 3850
Wire Wire Line
	5100 2350 5100 3750
Wire Wire Line
	4000 3750 5100 3750
Connection ~ 5100 3750
$Comp
L power:+5V #PWR0104
U 1 1 616C5A54
P 2600 3750
F 0 "#PWR0104" H 2600 3600 50  0001 C CNN
F 1 "+5V" H 2615 3923 50  0000 C CNN
F 2 "" H 2600 3750 50  0001 C CNN
F 3 "" H 2600 3750 50  0001 C CNN
	1    2600 3750
	0    -1   -1   0   
$EndComp
$Comp
L Device:R_Network08 RN1
U 1 1 6170AFD7
P 5450 3250
F 0 "RN1" V 4833 3250 50  0000 C CNN
F 1 "R_Network08" V 4924 3250 50  0000 C CNN
F 2 "Resistor_THT:R_Array_SIP9" V 5925 3250 50  0001 C CNN
F 3 "http://www.vishay.com/docs/31509/csc.pdf" H 5450 3250 50  0001 C CNN
	1    5450 3250
	0    1    1    0   
$EndComp
$Comp
L Device:R_Network08 RN2
U 1 1 6170F36A
P 5900 3750
F 0 "RN2" V 5283 3750 50  0000 C CNN
F 1 "R_Network08" V 5374 3750 50  0000 C CNN
F 2 "Resistor_THT:R_Array_SIP9" V 6375 3750 50  0001 C CNN
F 3 "http://www.vishay.com/docs/31509/csc.pdf" H 5900 3750 50  0001 C CNN
	1    5900 3750
	0    1    1    0   
$EndComp
Text GLabel 2600 2850 0    50   Input ~ 0
SDA
Text GLabel 2600 2950 0    50   Input ~ 0
SCK
Text GLabel 1900 3300 2    50   Input ~ 0
SDA
Text GLabel 1900 3400 2    50   Input ~ 0
SCK
Text GLabel 1900 2700 2    50   Input ~ 0
SDA
Text GLabel 1900 2800 2    50   Input ~ 0
SCK
Connection ~ 4000 2850
$Comp
L Interface_Expansion:MCP23017_SP U1
U 1 1 61579994
P 3300 3650
F 0 "U1" H 3300 4928 50  0000 C CNN
F 1 "MCP23017_SP" H 3300 4837 50  0000 C CNN
F 2 "Package_DIP:DIP-28_W7.62mm" H 3500 2650 50  0001 L CNN
F 3 "http://ww1.microchip.com/downloads/en/DeviceDoc/20001952C.pdf" H 3500 2550 50  0001 L CNN
	1    3300 3650
	1    0    0    -1  
$EndComp
Connection ~ 1800 4450
Wire Wire Line
	5100 3750 5700 3750
Wire Wire Line
	5000 3850 5700 3850
Wire Wire Line
	4900 3950 5700 3950
Wire Wire Line
	4800 4050 5700 4050
$Comp
L Mechanical:MountingHole H4
U 1 1 6187F74C
P 1750 2100
F 0 "H4" H 1850 2146 50  0000 L CNN
F 1 "MountingHole" H 1850 2055 50  0000 L CNN
F 2 "MountingHole:MountingHole_3.2mm_M3" H 1750 2100 50  0001 C CNN
F 3 "~" H 1750 2100 50  0001 C CNN
	1    1750 2100
	1    0    0    -1  
$EndComp
$Comp
L Mechanical:MountingHole H3
U 1 1 61880A13
P 1750 1900
F 0 "H3" H 1850 1946 50  0000 L CNN
F 1 "MountingHole" H 1850 1855 50  0000 L CNN
F 2 "MountingHole:MountingHole_3.2mm_M3" H 1750 1900 50  0001 C CNN
F 3 "~" H 1750 1900 50  0001 C CNN
	1    1750 1900
	1    0    0    -1  
$EndComp
$Comp
L Mechanical:MountingHole H2
U 1 1 61881178
P 1750 1700
F 0 "H2" H 1850 1746 50  0000 L CNN
F 1 "MountingHole" H 1850 1655 50  0000 L CNN
F 2 "MountingHole:MountingHole_3.2mm_M3" H 1750 1700 50  0001 C CNN
F 3 "" H 1750 1700 50  0001 C CNN
	1    1750 1700
	1    0    0    -1  
$EndComp
$Comp
L Mechanical:MountingHole H1
U 1 1 618818DD
P 1750 1500
F 0 "H1" H 1850 1546 50  0000 L CNN
F 1 "MountingHole" H 1850 1455 50  0000 L CNN
F 2 "MountingHole:MountingHole_3.2mm_M3" H 1750 1500 50  0001 C CNN
F 3 "" H 1750 1500 50  0001 C CNN
	1    1750 1500
	1    0    0    -1  
$EndComp
$EndSCHEMATC
