EESchema Schematic File Version 4
LIBS:master-cache
EELAYER 26 0
EELAYER END
$Descr A4 11693 8268
encoding utf-8
Sheet 1 1
Title ""
Date ""
Rev ""
Comp ""
Comment1 ""
Comment2 ""
Comment3 ""
Comment4 ""
$EndDescr
$Comp
L Interface_Expansion:MCP23017_SP U3
U 1 1 61586E5D
P 7850 4200
F 0 "U3" H 7850 5478 50  0000 C CNN
F 1 "MCP23017_SP" H 7850 5387 50  0000 C CNN
F 2 "Package_DIP:DIP-28_W7.62mm" H 8050 3200 50  0001 L CNN
F 3 "http://ww1.microchip.com/downloads/en/DeviceDoc/20001952C.pdf" H 8050 3100 50  0001 L CNN
	1    7850 4200
	0    1    1    0   
$EndComp
$Comp
L Interface_Expansion:MCP23017_SP U2
U 1 1 61586EFE
P 5400 4200
F 0 "U2" H 5400 5478 50  0000 C CNN
F 1 "MCP23017_SP" H 5400 5387 50  0000 C CNN
F 2 "Package_DIP:DIP-28_W7.62mm" H 5600 3200 50  0001 L CNN
F 3 "http://ww1.microchip.com/downloads/en/DeviceDoc/20001952C.pdf" H 5600 3100 50  0001 L CNN
	1    5400 4200
	0    1    1    0   
$EndComp
$Comp
L Interface_Expansion:MCP23017_SP U1
U 1 1 61587056
P 2850 4200
F 0 "U1" H 2850 5478 50  0000 C CNN
F 1 "MCP23017_SP" H 2850 5387 50  0000 C CNN
F 2 "Package_DIP:DIP-28_W7.62mm" H 3050 3200 50  0001 L CNN
F 3 "http://ww1.microchip.com/downloads/en/DeviceDoc/20001952C.pdf" H 3050 3100 50  0001 L CNN
	1    2850 4200
	0    1    1    0   
$EndComp
Wire Wire Line
	3550 3500 3550 3100
Wire Wire Line
	3550 3100 6100 3100
Wire Wire Line
	8550 3100 8550 3500
Wire Wire Line
	3650 3500 3650 3200
Wire Wire Line
	3650 3200 6200 3200
Wire Wire Line
	8650 3200 8650 3500
Wire Wire Line
	6200 3200 6200 3500
Connection ~ 6200 3200
Wire Wire Line
	6200 3200 8650 3200
Wire Wire Line
	6100 3500 6100 3100
Connection ~ 6100 3100
Wire Wire Line
	6100 3100 8550 3100
$Comp
L power:+5V #PWR0149
U 1 1 615D14C3
P 3950 4200
F 0 "#PWR0149" H 3950 4050 50  0001 C CNN
F 1 "+5V" V 3965 4328 50  0000 L CNN
F 2 "" H 3950 4200 50  0001 C CNN
F 3 "" H 3950 4200 50  0001 C CNN
	1    3950 4200
	0    1    1    0   
$EndComp
$Comp
L power:+5V #PWR0150
U 1 1 615D1786
P 6500 4200
F 0 "#PWR0150" H 6500 4050 50  0001 C CNN
F 1 "+5V" V 6515 4328 50  0000 L CNN
F 2 "" H 6500 4200 50  0001 C CNN
F 3 "" H 6500 4200 50  0001 C CNN
	1    6500 4200
	0    1    1    0   
$EndComp
$Comp
L power:+5V #PWR0151
U 1 1 615D5662
P 8950 4200
F 0 "#PWR0151" H 8950 4050 50  0001 C CNN
F 1 "+5V" V 8965 4328 50  0000 L CNN
F 2 "" H 8950 4200 50  0001 C CNN
F 3 "" H 8950 4200 50  0001 C CNN
	1    8950 4200
	0    1    1    0   
$EndComp
$Comp
L power:GND #PWR0152
U 1 1 615D9AEF
P 1750 4200
F 0 "#PWR0152" H 1750 3950 50  0001 C CNN
F 1 "GND" V 1755 4072 50  0000 R CNN
F 2 "" H 1750 4200 50  0001 C CNN
F 3 "" H 1750 4200 50  0001 C CNN
	1    1750 4200
	0    1    1    0   
$EndComp
$Comp
L power:GND #PWR0153
U 1 1 615D9FF0
P 4300 4200
F 0 "#PWR0153" H 4300 3950 50  0001 C CNN
F 1 "GND" V 4305 4072 50  0000 R CNN
F 2 "" H 4300 4200 50  0001 C CNN
F 3 "" H 4300 4200 50  0001 C CNN
	1    4300 4200
	0    1    1    0   
$EndComp
$Comp
L power:GND #PWR0154
U 1 1 615DE05B
P 6750 4200
F 0 "#PWR0154" H 6750 3950 50  0001 C CNN
F 1 "GND" V 6755 4072 50  0000 R CNN
F 2 "" H 6750 4200 50  0001 C CNN
F 3 "" H 6750 4200 50  0001 C CNN
	1    6750 4200
	0    1    1    0   
$EndComp
$Comp
L power:GND #PWR0155
U 1 1 615E201B
P 2250 3500
F 0 "#PWR0155" H 2250 3250 50  0001 C CNN
F 1 "GND" V 2255 3372 50  0000 R CNN
F 2 "" H 2250 3500 50  0001 C CNN
F 3 "" H 2250 3500 50  0001 C CNN
	1    2250 3500
	-1   0    0    1   
$EndComp
$Comp
L power:GND #PWR0156
U 1 1 615F5BF0
P 2150 3500
F 0 "#PWR0156" H 2150 3250 50  0001 C CNN
F 1 "GND" V 2155 3372 50  0000 R CNN
F 2 "" H 2150 3500 50  0001 C CNN
F 3 "" H 2150 3500 50  0001 C CNN
	1    2150 3500
	-1   0    0    1   
$EndComp
$Comp
L power:GND #PWR0157
U 1 1 615F9ACC
P 2050 3500
F 0 "#PWR0157" H 2050 3250 50  0001 C CNN
F 1 "GND" V 2055 3372 50  0000 R CNN
F 2 "" H 2050 3500 50  0001 C CNN
F 3 "" H 2050 3500 50  0001 C CNN
	1    2050 3500
	-1   0    0    1   
$EndComp
$Comp
L power:GND #PWR0158
U 1 1 615FDB70
P 7050 3500
F 0 "#PWR0158" H 7050 3250 50  0001 C CNN
F 1 "GND" V 7055 3372 50  0000 R CNN
F 2 "" H 7050 3500 50  0001 C CNN
F 3 "" H 7050 3500 50  0001 C CNN
	1    7050 3500
	-1   0    0    1   
$EndComp
$Comp
L power:GND #PWR0159
U 1 1 61601A4C
P 7250 3500
F 0 "#PWR0159" H 7250 3250 50  0001 C CNN
F 1 "GND" V 7255 3372 50  0000 R CNN
F 2 "" H 7250 3500 50  0001 C CNN
F 3 "" H 7250 3500 50  0001 C CNN
	1    7250 3500
	-1   0    0    1   
$EndComp
$Comp
L power:GND #PWR0160
U 1 1 61605A0C
P 4700 3500
F 0 "#PWR0160" H 4700 3250 50  0001 C CNN
F 1 "GND" V 4705 3372 50  0000 R CNN
F 2 "" H 4700 3500 50  0001 C CNN
F 3 "" H 4700 3500 50  0001 C CNN
	1    4700 3500
	-1   0    0    1   
$EndComp
$Comp
L power:GND #PWR0161
U 1 1 616098E8
P 4800 3500
F 0 "#PWR0161" H 4800 3250 50  0001 C CNN
F 1 "GND" V 4805 3372 50  0000 R CNN
F 2 "" H 4800 3500 50  0001 C CNN
F 3 "" H 4800 3500 50  0001 C CNN
	1    4800 3500
	-1   0    0    1   
$EndComp
$Comp
L power:+5V #PWR0162
U 1 1 6161191E
P 7150 3500
F 0 "#PWR0162" H 7150 3350 50  0001 C CNN
F 1 "+5V" V 7165 3628 50  0000 L CNN
F 2 "" H 7150 3500 50  0001 C CNN
F 3 "" H 7150 3500 50  0001 C CNN
	1    7150 3500
	1    0    0    -1  
$EndComp
$Comp
L power:+5V #PWR0163
U 1 1 6161D6CF
P 4600 3500
F 0 "#PWR0163" H 4600 3350 50  0001 C CNN
F 1 "+5V" V 4615 3628 50  0000 L CNN
F 2 "" H 4600 3500 50  0001 C CNN
F 3 "" H 4600 3500 50  0001 C CNN
	1    4600 3500
	1    0    0    -1  
$EndComp
$Comp
L MCU_Module:Arduino_Nano_v3.x A1
U 1 1 61657796
P 7650 1750
F 0 "A1" H 7650 664 50  0000 C CNN
F 1 "Arduino_Nano_v3.x" H 7650 573 50  0000 C CNN
F 2 "Module:Arduino_Nano" H 7800 800 50  0001 L CNN
F 3 "http://www.mouser.com/pdfdocs/Gravitech_Arduino_Nano3_0.pdf" H 7650 750 50  0001 C CNN
	1    7650 1750
	1    0    0    -1  
$EndComp
$Comp
L power:+5V #PWR0167
U 1 1 6167B981
P 7550 750
F 0 "#PWR0167" H 7550 600 50  0001 C CNN
F 1 "+5V" V 7565 878 50  0000 L CNN
F 2 "" H 7550 750 50  0001 C CNN
F 3 "" H 7550 750 50  0001 C CNN
	1    7550 750 
	1    0    0    -1  
$EndComp
$Comp
L power:GND #PWR0168
U 1 1 61687AB7
P 7750 2750
F 0 "#PWR0168" H 7750 2500 50  0001 C CNN
F 1 "GND" V 7755 2622 50  0000 R CNN
F 2 "" H 7750 2750 50  0001 C CNN
F 3 "" H 7750 2750 50  0001 C CNN
	1    7750 2750
	1    0    0    -1  
$EndComp
$Comp
L power:GND #PWR0169
U 1 1 6169379E
P 7650 2750
F 0 "#PWR0169" H 7650 2500 50  0001 C CNN
F 1 "GND" V 7655 2622 50  0000 R CNN
F 2 "" H 7650 2750 50  0001 C CNN
F 3 "" H 7650 2750 50  0001 C CNN
	1    7650 2750
	1    0    0    -1  
$EndComp
Wire Wire Line
	8150 2150 8650 2150
Wire Wire Line
	8650 2150 8650 3200
Connection ~ 8650 3200
Wire Wire Line
	8150 2250 8550 2250
Wire Wire Line
	8550 2250 8550 3100
Connection ~ 8550 3100
$Comp
L Connector:Conn_01x03_Male J7
U 1 1 616AC6B2
P 9750 1250
F 0 "J7" H 9723 1180 50  0000 R CNN
F 1 "POT 1" H 9723 1271 50  0000 R CNN
F 2 "Connector_JST:JST_XH_B03B-XH-A_1x03_P2.50mm_Vertical" H 9750 1250 50  0001 C CNN
F 3 "~" H 9750 1250 50  0001 C CNN
	1    9750 1250
	-1   0    0    1   
$EndComp
$Comp
L power:+5V #PWR0170
U 1 1 616BD19E
P 9550 1350
F 0 "#PWR0170" H 9550 1200 50  0001 C CNN
F 1 "+5V" V 9565 1478 50  0000 L CNN
F 2 "" H 9550 1350 50  0001 C CNN
F 3 "" H 9550 1350 50  0001 C CNN
	1    9550 1350
	0    -1   -1   0   
$EndComp
$Comp
L power:GND #PWR0171
U 1 1 616BD33B
P 9550 1150
F 0 "#PWR0171" H 9550 900 50  0001 C CNN
F 1 "GND" V 9555 1022 50  0000 R CNN
F 2 "" H 9550 1150 50  0001 C CNN
F 3 "" H 9550 1150 50  0001 C CNN
	1    9550 1150
	0    1    1    0   
$EndComp
$Comp
L Connector:Conn_01x03_Male J8
U 1 1 616BD786
P 9750 1550
F 0 "J8" H 9723 1480 50  0000 R CNN
F 1 "POT 2" H 9723 1571 50  0000 R CNN
F 2 "Connector_JST:JST_XH_B03B-XH-A_1x03_P2.50mm_Vertical" H 9750 1550 50  0001 C CNN
F 3 "~" H 9750 1550 50  0001 C CNN
	1    9750 1550
	-1   0    0    1   
$EndComp
$Comp
L power:+5V #PWR0172
U 1 1 616BD78D
P 9550 1650
F 0 "#PWR0172" H 9550 1500 50  0001 C CNN
F 1 "+5V" V 9565 1778 50  0000 L CNN
F 2 "" H 9550 1650 50  0001 C CNN
F 3 "" H 9550 1650 50  0001 C CNN
	1    9550 1650
	0    -1   -1   0   
$EndComp
$Comp
L power:GND #PWR0173
U 1 1 616BD793
P 9550 1450
F 0 "#PWR0173" H 9550 1200 50  0001 C CNN
F 1 "GND" V 9555 1322 50  0000 R CNN
F 2 "" H 9550 1450 50  0001 C CNN
F 3 "" H 9550 1450 50  0001 C CNN
	1    9550 1450
	0    1    1    0   
$EndComp
$Comp
L Connector:Conn_01x03_Male J9
U 1 1 616C1925
P 9750 1850
F 0 "J9" H 9723 1780 50  0000 R CNN
F 1 "POT 3" H 9723 1871 50  0000 R CNN
F 2 "Connector_JST:JST_XH_B03B-XH-A_1x03_P2.50mm_Vertical" H 9750 1850 50  0001 C CNN
F 3 "~" H 9750 1850 50  0001 C CNN
	1    9750 1850
	-1   0    0    1   
$EndComp
$Comp
L power:+5V #PWR0174
U 1 1 616C192C
P 9550 1950
F 0 "#PWR0174" H 9550 1800 50  0001 C CNN
F 1 "+5V" V 9565 2078 50  0000 L CNN
F 2 "" H 9550 1950 50  0001 C CNN
F 3 "" H 9550 1950 50  0001 C CNN
	1    9550 1950
	0    -1   -1   0   
$EndComp
$Comp
L power:GND #PWR0175
U 1 1 616C1932
P 9550 1750
F 0 "#PWR0175" H 9550 1500 50  0001 C CNN
F 1 "GND" V 9555 1622 50  0000 R CNN
F 2 "" H 9550 1750 50  0001 C CNN
F 3 "" H 9550 1750 50  0001 C CNN
	1    9550 1750
	0    1    1    0   
$EndComp
$Comp
L Connector:Conn_01x03_Male J10
U 1 1 616C5AC6
P 9750 2150
F 0 "J10" H 9723 2080 50  0000 R CNN
F 1 "POT 4" H 9723 2171 50  0000 R CNN
F 2 "Connector_JST:JST_XH_B03B-XH-A_1x03_P2.50mm_Vertical" H 9750 2150 50  0001 C CNN
F 3 "~" H 9750 2150 50  0001 C CNN
	1    9750 2150
	-1   0    0    1   
$EndComp
$Comp
L power:+5V #PWR0176
U 1 1 616C5ACD
P 9550 2250
F 0 "#PWR0176" H 9550 2100 50  0001 C CNN
F 1 "+5V" V 9565 2378 50  0000 L CNN
F 2 "" H 9550 2250 50  0001 C CNN
F 3 "" H 9550 2250 50  0001 C CNN
	1    9550 2250
	0    -1   -1   0   
$EndComp
$Comp
L power:GND #PWR0177
U 1 1 616C5AD3
P 9550 2050
F 0 "#PWR0177" H 9550 1800 50  0001 C CNN
F 1 "GND" V 9555 1922 50  0000 R CNN
F 2 "" H 9550 2050 50  0001 C CNN
F 3 "" H 9550 2050 50  0001 C CNN
	1    9550 2050
	0    1    1    0   
$EndComp
Wire Wire Line
	8150 1750 8600 1750
Wire Wire Line
	8600 1750 8600 1250
Wire Wire Line
	8150 1850 8700 1850
Wire Wire Line
	8700 1850 8700 1550
Wire Wire Line
	8150 1950 8750 1950
Wire Wire Line
	8750 1950 8750 1850
Wire Wire Line
	8150 2050 8850 2050
Wire Wire Line
	8850 2050 8850 2150
Wire Wire Line
	8600 1250 9550 1250
Wire Wire Line
	8700 1550 9550 1550
Wire Wire Line
	8750 1850 9550 1850
Wire Wire Line
	8850 2150 9550 2150
$Comp
L Connector:Conn_01x02_Male J11
U 1 1 61709826
P 3100 2350
F 0 "J11" H 3206 2528 50  0000 C CNN
F 1 "Conn_01x02_Male" H 3206 2437 50  0000 C CNN
F 2 "Connector_JST:JST_XH_B02B-XH-A_1x02_P2.50mm_Vertical" H 3100 2350 50  0001 C CNN
F 3 "~" H 3100 2350 50  0001 C CNN
	1    3100 2350
	1    0    0    -1  
$EndComp
$Comp
L power:+5V #PWR0178
U 1 1 617099D3
P 3300 2350
F 0 "#PWR0178" H 3300 2200 50  0001 C CNN
F 1 "+5V" H 3315 2523 50  0000 C CNN
F 2 "" H 3300 2350 50  0001 C CNN
F 3 "" H 3300 2350 50  0001 C CNN
	1    3300 2350
	1    0    0    -1  
$EndComp
$Comp
L power:GND #PWR0179
U 1 1 61709AC2
P 3300 2450
F 0 "#PWR0179" H 3300 2200 50  0001 C CNN
F 1 "GND" H 3305 2277 50  0000 C CNN
F 2 "" H 3300 2450 50  0001 C CNN
F 3 "" H 3300 2450 50  0001 C CNN
	1    3300 2450
	1    0    0    -1  
$EndComp
$Comp
L Connector:Conn_01x03_Male J13
U 1 1 6170AC52
P 6050 1400
F 0 "J13" H 6156 1678 50  0000 C CNN
F 1 "MIDI OUT" H 6156 1587 50  0000 C CNN
F 2 "Connector_JST:JST_XH_B03B-XH-A_1x03_P2.50mm_Vertical" H 6050 1400 50  0001 C CNN
F 3 "~" H 6050 1400 50  0001 C CNN
	1    6050 1400
	1    0    0    -1  
$EndComp
$Comp
L Device:R_Small R53
U 1 1 61710469
P 6350 1400
F 0 "R53" H 6409 1446 50  0000 L CNN
F 1 "R_Small" H 6409 1355 50  0000 L CNN
F 2 "Resistor_THT:R_Axial_DIN0204_L3.6mm_D1.6mm_P5.08mm_Horizontal" H 6350 1400 50  0001 C CNN
F 3 "~" H 6350 1400 50  0001 C CNN
	1    6350 1400
	0    -1   -1   0   
$EndComp
$Comp
L Device:R_Small R52
U 1 1 61714BFC
P 6350 1300
F 0 "R52" H 6409 1346 50  0000 L CNN
F 1 "R_Small" H 6409 1255 50  0000 L CNN
F 2 "Resistor_THT:R_Axial_DIN0204_L3.6mm_D1.6mm_P5.08mm_Horizontal" H 6350 1300 50  0001 C CNN
F 3 "~" H 6350 1300 50  0001 C CNN
	1    6350 1300
	0    -1   -1   0   
$EndComp
$Comp
L power:+5V #PWR0180
U 1 1 6172B3CD
P 6450 1300
F 0 "#PWR0180" H 6450 1150 50  0001 C CNN
F 1 "+5V" V 6465 1428 50  0000 L CNN
F 2 "" H 6450 1300 50  0001 C CNN
F 3 "" H 6450 1300 50  0001 C CNN
	1    6450 1300
	0    1    1    0   
$EndComp
Wire Wire Line
	6450 1400 6850 1400
$Comp
L power:GND #PWR0181
U 1 1 617539FD
P 6250 1500
F 0 "#PWR0181" H 6250 1250 50  0001 C CNN
F 1 "GND" V 6255 1372 50  0000 R CNN
F 2 "" H 6250 1500 50  0001 C CNN
F 3 "" H 6250 1500 50  0001 C CNN
	1    6250 1500
	0    -1   -1   0   
$EndComp
$Comp
L power:+5V #PWR0101
U 1 1 616E6D66
P 2750 3500
F 0 "#PWR0101" H 2750 3350 50  0001 C CNN
F 1 "+5V" V 2765 3628 50  0000 L CNN
F 2 "" H 2750 3500 50  0001 C CNN
F 3 "" H 2750 3500 50  0001 C CNN
	1    2750 3500
	1    0    0    -1  
$EndComp
$Comp
L power:+5V #PWR0102
U 1 1 616FD5AF
P 5300 3500
F 0 "#PWR0102" H 5300 3350 50  0001 C CNN
F 1 "+5V" V 5315 3628 50  0000 L CNN
F 2 "" H 5300 3500 50  0001 C CNN
F 3 "" H 5300 3500 50  0001 C CNN
	1    5300 3500
	1    0    0    -1  
$EndComp
$Comp
L power:+5V #PWR0103
U 1 1 617186D1
P 7750 3500
F 0 "#PWR0103" H 7750 3350 50  0001 C CNN
F 1 "+5V" V 7765 3628 50  0000 L CNN
F 2 "" H 7750 3500 50  0001 C CNN
F 3 "" H 7750 3500 50  0001 C CNN
	1    7750 3500
	1    0    0    -1  
$EndComp
$Comp
L Device:R_Network08 RN1
U 1 1 6170ED62
P 2450 5550
F 0 "RN1" H 1970 5504 50  0000 R CNN
F 1 "R8x10k" H 1970 5595 50  0000 R CNN
F 2 "Resistor_THT:R_Array_SIP9" V 2925 5550 50  0001 C CNN
F 3 "http://www.vishay.com/docs/31509/csc.pdf" H 2450 5550 50  0001 C CNN
	1    2450 5550
	1    0    0    1   
$EndComp
$Comp
L Device:R_Network08 RN2
U 1 1 6170F6AB
P 3250 5550
F 0 "RN2" H 2770 5504 50  0000 R CNN
F 1 "R8x10k" H 2770 5595 50  0000 R CNN
F 2 "Resistor_THT:R_Array_SIP9" V 3725 5550 50  0001 C CNN
F 3 "http://www.vishay.com/docs/31509/csc.pdf" H 3250 5550 50  0001 C CNN
	1    3250 5550
	-1   0    0    1   
$EndComp
$Comp
L Device:R_Network08 RN3
U 1 1 6170F966
P 5000 5550
F 0 "RN3" H 4520 5504 50  0000 R CNN
F 1 "8x10k" H 4520 5595 50  0000 R CNN
F 2 "Resistor_THT:R_Array_SIP9" V 5475 5550 50  0001 C CNN
F 3 "http://www.vishay.com/docs/31509/csc.pdf" H 5000 5550 50  0001 C CNN
	1    5000 5550
	1    0    0    1   
$EndComp
$Comp
L Device:R_Network08 RN4
U 1 1 6170FC61
P 5800 5550
F 0 "RN4" H 5320 5504 50  0000 R CNN
F 1 "R8x10k" H 5320 5595 50  0000 R CNN
F 2 "Resistor_THT:R_Array_SIP9" V 6275 5550 50  0001 C CNN
F 3 "http://www.vishay.com/docs/31509/csc.pdf" H 5800 5550 50  0001 C CNN
	1    5800 5550
	-1   0    0    1   
$EndComp
$Comp
L Device:R_Network08 RN5
U 1 1 6170FF3C
P 7450 5550
F 0 "RN5" H 6970 5504 50  0000 R CNN
F 1 "R8x10k" H 6970 5595 50  0000 R CNN
F 2 "Resistor_THT:R_Array_SIP9" V 7925 5550 50  0001 C CNN
F 3 "http://www.vishay.com/docs/31509/csc.pdf" H 7450 5550 50  0001 C CNN
	1    7450 5550
	1    0    0    1   
$EndComp
$Comp
L Device:R_Network08 RN6
U 1 1 6171023A
P 8250 5550
F 0 "RN6" H 7770 5504 50  0000 R CNN
F 1 "R8x10k" H 7770 5595 50  0000 R CNN
F 2 "Resistor_THT:R_Array_SIP9" V 8725 5550 50  0001 C CNN
F 3 "http://www.vishay.com/docs/31509/csc.pdf" H 8250 5550 50  0001 C CNN
	1    8250 5550
	-1   0    0    1   
$EndComp
$Comp
L power:+5V #PWR0104
U 1 1 617105AE
P 8650 5750
F 0 "#PWR0104" H 8650 5600 50  0001 C CNN
F 1 "+5V" V 8665 5878 50  0000 L CNN
F 2 "" H 8650 5750 50  0001 C CNN
F 3 "" H 8650 5750 50  0001 C CNN
	1    8650 5750
	-1   0    0    1   
$EndComp
$Comp
L power:+5V #PWR0105
U 1 1 61710D3D
P 7050 5750
F 0 "#PWR0105" H 7050 5600 50  0001 C CNN
F 1 "+5V" V 7065 5878 50  0000 L CNN
F 2 "" H 7050 5750 50  0001 C CNN
F 3 "" H 7050 5750 50  0001 C CNN
	1    7050 5750
	1    0    0    1   
$EndComp
$Comp
L power:+5V #PWR0106
U 1 1 6171152B
P 6200 5750
F 0 "#PWR0106" H 6200 5600 50  0001 C CNN
F 1 "+5V" V 6215 5878 50  0000 L CNN
F 2 "" H 6200 5750 50  0001 C CNN
F 3 "" H 6200 5750 50  0001 C CNN
	1    6200 5750
	-1   0    0    1   
$EndComp
$Comp
L power:+5V #PWR0107
U 1 1 617117AF
P 4600 5750
F 0 "#PWR0107" H 4600 5600 50  0001 C CNN
F 1 "+5V" V 4615 5878 50  0000 L CNN
F 2 "" H 4600 5750 50  0001 C CNN
F 3 "" H 4600 5750 50  0001 C CNN
	1    4600 5750
	1    0    0    1   
$EndComp
$Comp
L power:+5V #PWR0108
U 1 1 61711AD5
P 2050 5750
F 0 "#PWR0108" H 2050 5600 50  0001 C CNN
F 1 "+5V" V 2065 5878 50  0000 L CNN
F 2 "" H 2050 5750 50  0001 C CNN
F 3 "" H 2050 5750 50  0001 C CNN
	1    2050 5750
	1    0    0    1   
$EndComp
$Comp
L power:+5V #PWR0109
U 1 1 61711D59
P 3650 5750
F 0 "#PWR0109" H 3650 5600 50  0001 C CNN
F 1 "+5V" V 3665 5878 50  0000 L CNN
F 2 "" H 3650 5750 50  0001 C CNN
F 3 "" H 3650 5750 50  0001 C CNN
	1    3650 5750
	-1   0    0    1   
$EndComp
$Comp
L Connector:Conn_01x09_Male J1
U 1 1 617136DA
P 2350 5150
F 0 "J1" V 2185 5126 50  0000 C CNN
F 1 "Conn_01x09_Male" V 2276 5126 50  0000 C CNN
F 2 "Connector_PinHeader_2.54mm:PinHeader_1x09_P2.54mm_Vertical" H 2350 5150 50  0001 C CNN
F 3 "~" H 2350 5150 50  0001 C CNN
	1    2350 5150
	0    1    1    0   
$EndComp
$Comp
L Connector:Conn_01x09_Male J2
U 1 1 61714D17
P 3250 5150
F 0 "J2" V 3085 5126 50  0000 C CNN
F 1 "Conn_01x09_Male" V 3176 5126 50  0000 C CNN
F 2 "Connector_PinHeader_2.54mm:PinHeader_1x09_P2.54mm_Vertical" H 3250 5150 50  0001 C CNN
F 3 "~" H 3250 5150 50  0001 C CNN
	1    3250 5150
	0    1    1    0   
$EndComp
$Comp
L Connector:Conn_01x09_Male J3
U 1 1 61714FC4
P 4900 5150
F 0 "J3" V 4735 5126 50  0000 C CNN
F 1 "Conn_01x09_Male" V 4826 5126 50  0001 C CNN
F 2 "Connector_PinHeader_2.54mm:PinHeader_1x09_P2.54mm_Vertical" H 4900 5150 50  0001 C CNN
F 3 "~" H 4900 5150 50  0001 C CNN
	1    4900 5150
	0    1    1    0   
$EndComp
$Comp
L Connector:Conn_01x09_Male J4
U 1 1 6171527F
P 5800 5150
F 0 "J4" V 5635 5126 50  0000 C CNN
F 1 "Conn_01x09_Male" V 5726 5126 50  0001 C CNN
F 2 "Connector_PinHeader_2.54mm:PinHeader_1x09_P2.54mm_Vertical" H 5800 5150 50  0001 C CNN
F 3 "~" H 5800 5150 50  0001 C CNN
	1    5800 5150
	0    1    1    0   
$EndComp
$Comp
L Connector:Conn_01x09_Male J5
U 1 1 617155DC
P 7350 5150
F 0 "J5" V 7185 5126 50  0000 C CNN
F 1 "Conn_01x09_Male" V 7276 5126 50  0000 C CNN
F 2 "Connector_PinHeader_2.54mm:PinHeader_1x09_P2.54mm_Vertical" H 7350 5150 50  0001 C CNN
F 3 "~" H 7350 5150 50  0001 C CNN
	1    7350 5150
	0    1    1    0   
$EndComp
$Comp
L Connector:Conn_01x09_Male J6
U 1 1 61715879
P 8250 5150
F 0 "J6" V 8085 5126 50  0000 C CNN
F 1 "Conn_01x09_Male" V 8176 5126 50  0000 C CNN
F 2 "Connector_PinHeader_2.54mm:PinHeader_1x09_P2.54mm_Vertical" H 8250 5150 50  0001 C CNN
F 3 "~" H 8250 5150 50  0001 C CNN
	1    8250 5150
	0    1    1    0   
$EndComp
$Comp
L power:GND #PWR0110
U 1 1 617169AF
P 6950 5350
F 0 "#PWR0110" H 6950 5100 50  0001 C CNN
F 1 "GND" V 6955 5222 50  0000 R CNN
F 2 "" H 6950 5350 50  0001 C CNN
F 3 "" H 6950 5350 50  0001 C CNN
	1    6950 5350
	1    0    0    -1  
$EndComp
$Comp
L power:GND #PWR0111
U 1 1 6171768A
P 5400 5350
F 0 "#PWR0111" H 5400 5100 50  0001 C CNN
F 1 "GND" V 5405 5222 50  0000 R CNN
F 2 "" H 5400 5350 50  0001 C CNN
F 3 "" H 5400 5350 50  0001 C CNN
	1    5400 5350
	1    0    0    -1  
$EndComp
$Comp
L power:GND #PWR0112
U 1 1 61718123
P 7850 5350
F 0 "#PWR0112" H 7850 5100 50  0001 C CNN
F 1 "GND" V 7855 5222 50  0000 R CNN
F 2 "" H 7850 5350 50  0001 C CNN
F 3 "" H 7850 5350 50  0001 C CNN
	1    7850 5350
	1    0    0    -1  
$EndComp
$Comp
L power:GND #PWR0113
U 1 1 61718642
P 4500 5350
F 0 "#PWR0113" H 4500 5100 50  0001 C CNN
F 1 "GND" V 4505 5222 50  0000 R CNN
F 2 "" H 4500 5350 50  0001 C CNN
F 3 "" H 4500 5350 50  0001 C CNN
	1    4500 5350
	1    0    0    -1  
$EndComp
$Comp
L power:GND #PWR0114
U 1 1 61718992
P 2850 5350
F 0 "#PWR0114" H 2850 5100 50  0001 C CNN
F 1 "GND" V 2855 5222 50  0000 R CNN
F 2 "" H 2850 5350 50  0001 C CNN
F 3 "" H 2850 5350 50  0001 C CNN
	1    2850 5350
	1    0    0    -1  
$EndComp
$Comp
L power:GND #PWR0115
U 1 1 61718C22
P 1950 5350
F 0 "#PWR0115" H 1950 5100 50  0001 C CNN
F 1 "GND" V 1955 5222 50  0000 R CNN
F 2 "" H 1950 5350 50  0001 C CNN
F 3 "" H 1950 5350 50  0001 C CNN
	1    1950 5350
	1    0    0    -1  
$EndComp
Wire Wire Line
	3550 4900 3550 5350
Connection ~ 3550 5350
Wire Wire Line
	3450 4900 3450 5350
Connection ~ 3450 5350
Wire Wire Line
	3350 4900 3350 5350
Connection ~ 3350 5350
Wire Wire Line
	3250 4900 3250 5350
Connection ~ 3250 5350
Wire Wire Line
	3150 4900 3150 5350
Connection ~ 3150 5350
Wire Wire Line
	3050 4900 3050 5350
Connection ~ 3050 5350
Wire Wire Line
	2950 4900 2950 5350
Wire Wire Line
	2750 4900 2750 5350
Wire Wire Line
	2650 4900 2650 5350
Wire Wire Line
	2550 4900 2550 5350
Wire Wire Line
	2450 4900 2450 5350
Wire Wire Line
	2350 4900 2350 5350
Wire Wire Line
	2250 4900 2250 5350
Wire Wire Line
	2150 4900 2150 5350
Wire Wire Line
	2050 4900 2050 5350
Wire Wire Line
	5300 4900 5300 5350
Wire Wire Line
	5200 4900 5200 5350
Wire Wire Line
	5100 4900 5100 5350
Wire Wire Line
	5000 4900 5000 5350
Wire Wire Line
	4900 4900 4900 5350
Wire Wire Line
	4800 4900 4800 5350
Wire Wire Line
	4700 4900 4700 5350
Wire Wire Line
	4600 4900 4600 5350
Wire Wire Line
	5500 4900 5500 5350
Connection ~ 5500 5350
Wire Wire Line
	5600 4900 5600 5350
Connection ~ 5600 5350
Wire Wire Line
	5700 4900 5700 5350
Connection ~ 5700 5350
Wire Wire Line
	5800 4900 5800 5350
Connection ~ 5800 5350
Wire Wire Line
	5900 4900 5900 5350
Connection ~ 5900 5350
Wire Wire Line
	6000 4900 6000 5350
Connection ~ 6000 5350
Wire Wire Line
	6100 4900 6100 5350
Connection ~ 6100 5350
Wire Wire Line
	6200 4900 6200 5350
Connection ~ 6200 5350
Wire Wire Line
	7050 4900 7050 5350
Wire Wire Line
	7150 4900 7150 5350
Wire Wire Line
	7250 4900 7250 5350
Wire Wire Line
	7350 4900 7350 5350
Wire Wire Line
	7450 4900 7450 5350
Wire Wire Line
	7550 4900 7550 5350
Wire Wire Line
	7650 4900 7650 5350
Wire Wire Line
	7750 4900 7750 5350
Wire Wire Line
	7950 4900 7950 5350
Connection ~ 7950 5350
Wire Wire Line
	8050 4900 8050 5350
Connection ~ 8050 5350
Wire Wire Line
	8150 4900 8150 5350
Connection ~ 8150 5350
Wire Wire Line
	8250 4900 8250 5350
Connection ~ 8250 5350
Wire Wire Line
	8350 4900 8350 5350
Connection ~ 8350 5350
Wire Wire Line
	8450 4900 8450 5350
Connection ~ 8450 5350
Wire Wire Line
	8550 4900 8550 5350
Connection ~ 8550 5350
Wire Wire Line
	8650 4900 8650 5350
Connection ~ 8650 5350
$Comp
L Connector:Conn_01x03_Male J12
U 1 1 6175093E
P 5350 900
F 0 "J12" H 5456 1178 50  0000 C CNN
F 1 "MIDI IN" H 5456 1087 50  0000 C CNN
F 2 "Connector_JST:JST_XH_B03B-XH-A_1x03_P2.50mm_Vertical" H 5350 900 50  0001 C CNN
F 3 "~" H 5350 900 50  0001 C CNN
	1    5350 900 
	1    0    0    -1  
$EndComp
$Comp
L Diode:1N914 D1
U 1 1 6175FAC8
P 5900 900
F 0 "D1" H 5900 684 50  0000 C CNN
F 1 "1N914" H 5900 775 50  0000 C CNN
F 2 "Diode_THT:D_DO-35_SOD27_P7.62mm_Horizontal" H 5900 725 50  0001 C CNN
F 3 "http://www.vishay.com/docs/85622/1n914.pdf" H 5900 900 50  0001 C CNN
	1    5900 900 
	-1   0    0    1   
$EndComp
$Comp
L Device:R_Small R2
U 1 1 6175FBE7
P 6750 900
F 0 "R2" H 6809 946 50  0000 L CNN
F 1 "R10K" H 6809 855 50  0000 L CNN
F 2 "Resistor_THT:R_Axial_DIN0204_L3.6mm_D1.6mm_P5.08mm_Horizontal" H 6750 900 50  0001 C CNN
F 3 "~" H 6750 900 50  0001 C CNN
	1    6750 900 
	-1   0    0    1   
$EndComp
$Comp
L Device:R_Small R1
U 1 1 6175FBEE
P 5650 900
F 0 "R1" H 5709 946 50  0000 L CNN
F 1 "220" H 5709 855 50  0000 L CNN
F 2 "Resistor_THT:R_Axial_DIN0204_L3.6mm_D1.6mm_P5.08mm_Horizontal" H 5650 900 50  0001 C CNN
F 3 "~" H 5650 900 50  0001 C CNN
	1    5650 900 
	0    -1   -1   0   
$EndComp
$Comp
L Isolator:4N35 U4
U 1 1 61761A72
P 6350 1000
F 0 "U4" H 6350 1325 50  0000 C CNN
F 1 "4N35" H 6350 1234 50  0000 C CNN
F 2 "Package_DIP:DIP-6_W7.62mm" H 6150 800 50  0001 L CIN
F 3 "https://www.vishay.com/docs/81181/4n35.pdf" H 6350 1000 50  0001 L CNN
	1    6350 1000
	1    0    0    -1  
$EndComp
Wire Wire Line
	5550 800  6050 800 
Wire Wire Line
	6050 800  6050 900 
Connection ~ 6050 900 
$Comp
L power:GND #PWR0117
U 1 1 6178D220
P 6650 1100
F 0 "#PWR0117" H 6650 850 50  0001 C CNN
F 1 "GND" V 6655 972 50  0000 R CNN
F 2 "" H 6650 1100 50  0001 C CNN
F 3 "" H 6650 1100 50  0001 C CNN
	1    6650 1100
	0    -1   -1   0   
$EndComp
$Comp
L power:+5V #PWR0118
U 1 1 6179B851
P 6750 800
F 0 "#PWR0118" H 6750 650 50  0001 C CNN
F 1 "+5V" V 6765 928 50  0000 L CNN
F 2 "" H 6750 800 50  0001 C CNN
F 3 "" H 6750 800 50  0001 C CNN
	1    6750 800 
	1    0    0    -1  
$EndComp
Wire Wire Line
	6650 1000 6750 1000
Wire Wire Line
	6750 1000 7150 1000
Wire Wire Line
	7150 1000 7150 1150
Connection ~ 6750 1000
Wire Wire Line
	6850 1400 6850 1250
Wire Wire Line
	6850 1250 7150 1250
Connection ~ 2950 5350
Wire Wire Line
	3650 4900 3650 5350
Connection ~ 3650 5350
Connection ~ 2050 5350
Connection ~ 2150 5350
Connection ~ 2250 5350
Connection ~ 2350 5350
Connection ~ 2450 5350
Connection ~ 2550 5350
Connection ~ 2650 5350
Connection ~ 2750 5350
Connection ~ 4600 5350
Connection ~ 4700 5350
Connection ~ 4800 5350
Connection ~ 4900 5350
Connection ~ 5000 5350
Connection ~ 5100 5350
Connection ~ 5200 5350
Connection ~ 5300 5350
Connection ~ 7750 5350
Connection ~ 7650 5350
Connection ~ 7550 5350
Connection ~ 7450 5350
Connection ~ 7350 5350
Connection ~ 7250 5350
Connection ~ 7150 5350
Connection ~ 7050 5350
Wire Wire Line
	6050 1100 5750 1100
Wire Wire Line
	5750 1100 5750 900 
Connection ~ 5750 900 
$EndSCHEMATC
