EESchema Schematic File Version 4
LIBS:main-cache
EELAYER 26 0
EELAYER END
$Descr A4 11693 8268
encoding utf-8
Sheet 1 1
Title ""
Date ""
Rev ""
Comp ""
Comment1 ""
Comment2 ""
Comment3 ""
Comment4 ""
$EndDescr
$Comp
L Interface_Expansion:MCP23017_SP U2
U 1 1 61584F8E
P 4750 4050
F 0 "U2" H 4750 5328 50  0000 C CNN
F 1 "MCP23017_SP" H 4750 5237 50  0000 C CNN
F 2 "Package_DIP:DIP-28_W7.62mm" H 4950 3050 50  0001 L CNN
F 3 "http://ww1.microchip.com/downloads/en/DeviceDoc/20001952C.pdf" H 4950 2950 50  0001 L CNN
	1    4750 4050
	1    0    0    -1  
$EndComp
$Comp
L power:+5V #PWR0101
U 1 1 61584F95
P 4750 2950
F 0 "#PWR0101" H 4750 2800 50  0001 C CNN
F 1 "+5V" H 4765 3123 50  0000 C CNN
F 2 "" H 4750 2950 50  0001 C CNN
F 3 "" H 4750 2950 50  0001 C CNN
	1    4750 2950
	1    0    0    -1  
$EndComp
Wire Wire Line
	5450 3350 5550 3350
Wire Wire Line
	5450 3450 5650 3450
Wire Wire Line
	5450 3550 5750 3550
Wire Wire Line
	5450 3750 5950 3750
Wire Wire Line
	5450 3850 6050 3850
Wire Wire Line
	5450 3950 6150 3950
Wire Wire Line
	5450 4450 6350 4450
Wire Wire Line
	5450 4550 6250 4550
Wire Wire Line
	5450 2950 5450 3250
Wire Wire Line
	5550 2950 5550 3350
Wire Wire Line
	5650 2950 5650 3450
Wire Wire Line
	5750 2950 5750 3550
Wire Wire Line
	5850 2950 5850 3650
Wire Wire Line
	5450 3650 5850 3650
Wire Wire Line
	5950 2950 5950 3750
Wire Wire Line
	6050 2950 6050 3850
Wire Wire Line
	6150 2950 6150 3950
Wire Wire Line
	6250 2950 6250 4550
Wire Wire Line
	6350 2950 6350 4450
Wire Wire Line
	6450 2950 6450 4350
Wire Wire Line
	5450 4350 6450 4350
$Comp
L Connector:Conn_01x14_Male J4
U 1 1 61585036
P 6050 2750
F 0 "J4" V 5885 2677 50  0000 C CNN
F 1 "Conn_01x14_Male" V 5976 2677 50  0000 C CNN
F 2 "Connector_PinHeader_2.54mm:PinHeader_1x14_P2.54mm_Vertical" H 6050 2750 50  0001 C CNN
F 3 "~" H 6050 2750 50  0001 C CNN
	1    6050 2750
	0    -1   1    0   
$EndComp
Connection ~ 6450 4350
Connection ~ 6350 4450
Connection ~ 6250 4550
Connection ~ 6150 3950
Connection ~ 6050 3850
Connection ~ 5950 3750
Connection ~ 5850 3650
Connection ~ 5750 3550
Connection ~ 5650 3450
Connection ~ 5550 3350
Connection ~ 5450 3250
Wire Wire Line
	5450 3250 6850 3250
Wire Wire Line
	5550 3350 6850 3350
Wire Wire Line
	5650 3450 6850 3450
Wire Wire Line
	5750 3550 6850 3550
Wire Wire Line
	5850 3650 6850 3650
Wire Wire Line
	5950 3750 6850 3750
Wire Wire Line
	6050 3850 6850 3850
Wire Wire Line
	6150 3950 6850 3950
Wire Wire Line
	5450 4150 6650 4150
Wire Wire Line
	5450 4250 6550 4250
Wire Wire Line
	6550 4250 6550 2950
Connection ~ 6550 4250
Wire Wire Line
	6650 2950 6650 4150
Connection ~ 6650 4150
$Comp
L Connector:Conn_01x02_Male J5
U 1 1 6158505B
P 7150 2650
F 0 "J5" H 7256 2828 50  0000 C CNN
F 1 "5V" H 7256 2737 50  0000 C CNN
F 2 "Connector_JST:JST_XH_B02B-XH-A_1x02_P2.50mm_Vertical" H 7150 2650 50  0001 C CNN
F 3 "~" H 7150 2650 50  0001 C CNN
	1    7150 2650
	1    0    0    -1  
$EndComp
$Comp
L power:+5V #PWR0102
U 1 1 61585068
P 7350 2650
F 0 "#PWR0102" H 7350 2500 50  0001 C CNN
F 1 "+5V" H 7365 2823 50  0000 C CNN
F 2 "" H 7350 2650 50  0001 C CNN
F 3 "" H 7350 2650 50  0001 C CNN
	1    7350 2650
	0    1    1    0   
$EndComp
$Comp
L power:+5V #PWR0103
U 1 1 6158506E
P 7250 3250
F 0 "#PWR0103" H 7250 3100 50  0001 C CNN
F 1 "+5V" H 7265 3423 50  0000 C CNN
F 2 "" H 7250 3250 50  0001 C CNN
F 3 "" H 7250 3250 50  0001 C CNN
	1    7250 3250
	0    1    1    0   
$EndComp
$Comp
L Connector:Conn_01x04_Male J3
U 1 1 615850BC
P 3700 2750
F 0 "J3" H 3806 3028 50  0000 C CNN
F 1 "Conn_01x04_Male" H 3806 2937 50  0000 C CNN
F 2 "Connector_JST:JST_XH_B04B-XH-A_1x04_P2.50mm_Vertical" H 3700 2750 50  0001 C CNN
F 3 "~" H 3700 2750 50  0001 C CNN
	1    3700 2750
	0    1    1    0   
$EndComp
$Comp
L power:+5V #PWR0104
U 1 1 615850C3
P 3800 2950
F 0 "#PWR0104" H 3800 2800 50  0001 C CNN
F 1 "+5V" H 3815 3123 50  0000 C CNN
F 2 "" H 3800 2950 50  0001 C CNN
F 3 "" H 3800 2950 50  0001 C CNN
	1    3800 2950
	-1   0    0    1   
$EndComp
$Comp
L power:GND #PWR0105
U 1 1 61588781
P 4050 4650
F 0 "#PWR0105" H 4050 4400 50  0001 C CNN
F 1 "GND" V 4055 4522 50  0000 R CNN
F 2 "" H 4050 4650 50  0001 C CNN
F 3 "" H 4050 4650 50  0001 C CNN
	1    4050 4650
	0    1    1    0   
$EndComp
$Comp
L power:GND #PWR0106
U 1 1 615887E0
P 4050 4750
F 0 "#PWR0106" H 4050 4500 50  0001 C CNN
F 1 "GND" V 4055 4622 50  0000 R CNN
F 2 "" H 4050 4750 50  0001 C CNN
F 3 "" H 4050 4750 50  0001 C CNN
	1    4050 4750
	0    1    1    0   
$EndComp
$Comp
L power:GND #PWR0107
U 1 1 61588E1B
P 4050 4850
F 0 "#PWR0107" H 4050 4600 50  0001 C CNN
F 1 "GND" V 4055 4722 50  0000 R CNN
F 2 "" H 4050 4850 50  0001 C CNN
F 3 "" H 4050 4850 50  0001 C CNN
	1    4050 4850
	0    1    1    0   
$EndComp
$Comp
L power:GND #PWR0108
U 1 1 61589456
P 4750 5150
F 0 "#PWR0108" H 4750 4900 50  0001 C CNN
F 1 "GND" V 4755 5022 50  0000 R CNN
F 2 "" H 4750 5150 50  0001 C CNN
F 3 "" H 4750 5150 50  0001 C CNN
	1    4750 5150
	1    0    0    -1  
$EndComp
$Comp
L power:GND #PWR0109
U 1 1 6158A729
P 7350 2750
F 0 "#PWR0109" H 7350 2500 50  0001 C CNN
F 1 "GND" V 7355 2622 50  0000 R CNN
F 2 "" H 7350 2750 50  0001 C CNN
F 3 "" H 7350 2750 50  0001 C CNN
	1    7350 2750
	0    -1   -1   0   
$EndComp
$Comp
L power:GND #PWR0110
U 1 1 6158B9FC
P 3500 2950
F 0 "#PWR0110" H 3500 2700 50  0001 C CNN
F 1 "GND" V 3505 2822 50  0000 R CNN
F 2 "" H 3500 2950 50  0001 C CNN
F 3 "" H 3500 2950 50  0001 C CNN
	1    3500 2950
	1    0    0    -1  
$EndComp
$Comp
L power:GND #PWR0111
U 1 1 6158C26A
P 6750 2950
F 0 "#PWR0111" H 6750 2700 50  0001 C CNN
F 1 "GND" V 6755 2822 50  0000 R CNN
F 2 "" H 6750 2950 50  0001 C CNN
F 3 "" H 6750 2950 50  0001 C CNN
	1    6750 2950
	1    0    0    -1  
$EndComp
$Comp
L MCU_Module:Arduino_Nano_v3.x A1
U 1 1 6158DAFC
P 2750 2850
F 0 "A1" H 2750 1764 50  0000 C CNN
F 1 "Arduino_Nano_v3.x" H 2750 1673 50  0000 C CNN
F 2 "Module:Arduino_Nano" H 2900 1900 50  0001 L CNN
F 3 "http://www.mouser.com/pdfdocs/Gravitech_Arduino_Nano3_0.pdf" H 2750 1850 50  0001 C CNN
	1    2750 2850
	1    0    0    -1  
$EndComp
Wire Wire Line
	4050 3250 3700 3250
Wire Wire Line
	4050 3350 3600 3350
Wire Wire Line
	3700 2950 3700 3250
Connection ~ 3700 3250
Wire Wire Line
	3700 3250 3250 3250
Wire Wire Line
	3600 2950 3600 3350
Connection ~ 3600 3350
Wire Wire Line
	3600 3350 3250 3350
$Comp
L power:GND #PWR0112
U 1 1 61592FEB
P 2750 3850
F 0 "#PWR0112" H 2750 3600 50  0001 C CNN
F 1 "GND" H 2755 3677 50  0000 C CNN
F 2 "" H 2750 3850 50  0001 C CNN
F 3 "" H 2750 3850 50  0001 C CNN
	1    2750 3850
	1    0    0    -1  
$EndComp
$Comp
L power:GND #PWR0113
U 1 1 615930F1
P 2850 3850
F 0 "#PWR0113" H 2850 3600 50  0001 C CNN
F 1 "GND" H 2855 3677 50  0000 C CNN
F 2 "" H 2850 3850 50  0001 C CNN
F 3 "" H 2850 3850 50  0001 C CNN
	1    2850 3850
	1    0    0    -1  
$EndComp
$Comp
L power:+5V #PWR0114
U 1 1 61593296
P 2650 1850
F 0 "#PWR0114" H 2650 1700 50  0001 C CNN
F 1 "+5V" H 2665 2023 50  0000 C CNN
F 2 "" H 2650 1850 50  0001 C CNN
F 3 "" H 2650 1850 50  0001 C CNN
	1    2650 1850
	1    0    0    -1  
$EndComp
$Comp
L Connector:Conn_01x03_Male J2
U 1 1 615940B4
P 600 2350
F 0 "J2" H 706 2628 50  0000 C CNN
F 1 "MIDI OUT" H 706 2537 50  0000 C CNN
F 2 "Connector_JST:JST_XH_B03B-XH-A_1x03_P2.50mm_Vertical" H 600 2350 50  0001 C CNN
F 3 "~" H 600 2350 50  0001 C CNN
	1    600  2350
	1    0    0    -1  
$EndComp
$Comp
L power:+5V #PWR0115
U 1 1 61594AD6
P 1000 2250
F 0 "#PWR0115" H 1000 2100 50  0001 C CNN
F 1 "+5V" H 1015 2423 50  0000 C CNN
F 2 "" H 1000 2250 50  0001 C CNN
F 3 "" H 1000 2250 50  0001 C CNN
	1    1000 2250
	1    0    0    -1  
$EndComp
$Comp
L Device:R_Small R3
U 1 1 61599C21
P 900 2350
F 0 "R3" V 704 2350 50  0000 C CNN
F 1 "R220" V 795 2350 50  0000 C CNN
F 2 "Resistor_THT:R_Axial_DIN0204_L3.6mm_D1.6mm_P5.08mm_Horizontal" H 900 2350 50  0001 C CNN
F 3 "~" H 900 2350 50  0001 C CNN
	1    900  2350
	0    1    1    0   
$EndComp
$Comp
L Device:R_Small R2
U 1 1 6159A44F
P 900 2250
F 0 "R2" V 704 2250 50  0000 C CNN
F 1 "R220" V 795 2250 50  0000 C CNN
F 2 "Resistor_THT:R_Axial_DIN0204_L3.6mm_D1.6mm_P5.08mm_Horizontal" H 900 2250 50  0001 C CNN
F 3 "~" H 900 2250 50  0001 C CNN
	1    900  2250
	0    1    1    0   
$EndComp
$Comp
L power:GND #PWR0116
U 1 1 6159BD96
P 800 2450
F 0 "#PWR0116" H 800 2200 50  0001 C CNN
F 1 "GND" H 805 2277 50  0000 C CNN
F 2 "" H 800 2450 50  0001 C CNN
F 3 "" H 800 2450 50  0001 C CNN
	1    800  2450
	1    0    0    -1  
$EndComp
$Comp
L power:+5V #PWR0117
U 1 1 616C4B13
P 4050 4150
F 0 "#PWR0117" H 4050 4000 50  0001 C CNN
F 1 "+5V" H 4065 4323 50  0000 C CNN
F 2 "" H 4050 4150 50  0001 C CNN
F 3 "" H 4050 4150 50  0001 C CNN
	1    4050 4150
	0    -1   -1   0   
$EndComp
$Comp
L Isolator:4N35 U1
U 1 1 616F2A88
P 1600 1750
F 0 "U1" H 1600 2075 50  0000 C CNN
F 1 "4N35" H 1600 1984 50  0000 C CNN
F 2 "Package_DIP:DIP-6_W7.62mm" H 1400 1550 50  0001 L CIN
F 3 "https://www.vishay.com/docs/81181/4n35.pdf" H 1600 1750 50  0001 L CNN
	1    1600 1750
	1    0    0    -1  
$EndComp
$Comp
L Connector:Conn_01x03_Male J1
U 1 1 616F2E6D
P 600 1800
F 0 "J1" H 706 2078 50  0000 C CNN
F 1 "MIDI IN" H 706 1987 50  0000 C CNN
F 2 "Connector_JST:JST_XH_B03B-XH-A_1x03_P2.50mm_Vertical" H 600 1800 50  0001 C CNN
F 3 "~" H 600 1800 50  0001 C CNN
	1    600  1800
	1    0    0    -1  
$EndComp
$Comp
L power:GND #PWR0118
U 1 1 616F3904
P 1900 1850
F 0 "#PWR0118" H 1900 1600 50  0001 C CNN
F 1 "GND" H 1905 1677 50  0000 C CNN
F 2 "" H 1900 1850 50  0001 C CNN
F 3 "" H 1900 1850 50  0001 C CNN
	1    1900 1850
	0    -1   -1   0   
$EndComp
$Comp
L Device:R_Small R4
U 1 1 616F7E0D
P 2100 1650
F 0 "R4" V 1904 1650 50  0000 C CNN
F 1 "R10K" V 1995 1650 50  0000 C CNN
F 2 "Resistor_THT:R_Axial_DIN0204_L3.6mm_D1.6mm_P5.08mm_Horizontal" H 2100 1650 50  0001 C CNN
F 3 "~" H 2100 1650 50  0001 C CNN
	1    2100 1650
	-1   0    0    1   
$EndComp
$Comp
L power:+5V #PWR0119
U 1 1 616FA4DE
P 2100 1550
F 0 "#PWR0119" H 2100 1400 50  0001 C CNN
F 1 "+5V" H 2115 1723 50  0000 C CNN
F 2 "" H 2100 1550 50  0001 C CNN
F 3 "" H 2100 1550 50  0001 C CNN
	1    2100 1550
	1    0    0    -1  
$EndComp
Wire Wire Line
	1900 1750 2100 1750
Wire Wire Line
	2250 2250 2100 2250
Wire Wire Line
	2100 2250 2100 1750
Connection ~ 2100 1750
$Comp
L Diode:1N914 D1
U 1 1 616FE635
P 1000 1650
F 0 "D1" V 954 1729 50  0000 L CNN
F 1 "1N914" V 1045 1729 50  0000 L CNN
F 2 "Diode_THT:D_DO-35_SOD27_P7.62mm_Horizontal" H 1000 1475 50  0001 C CNN
F 3 "http://www.vishay.com/docs/85622/1n914.pdf" H 1000 1650 50  0001 C CNN
	1    1000 1650
	0    1    1    0   
$EndComp
$Comp
L Device:R_Small R1
U 1 1 6170AD80
P 900 1800
F 0 "R1" V 704 1800 50  0000 C CNN
F 1 "R220" V 795 1800 50  0000 C CNN
F 2 "Resistor_THT:R_Axial_DIN0204_L3.6mm_D1.6mm_P5.08mm_Horizontal" H 900 1800 50  0001 C CNN
F 3 "~" H 900 1800 50  0001 C CNN
	1    900  1800
	0    -1   -1   0   
$EndComp
Wire Wire Line
	1000 1800 1300 1800
Wire Wire Line
	1300 1800 1300 1850
Connection ~ 1000 1800
Wire Wire Line
	800  1700 800  1500
Wire Wire Line
	800  1500 1000 1500
Wire Wire Line
	1300 1500 1300 1650
Connection ~ 1000 1500
Wire Wire Line
	1000 1500 1300 1500
$Comp
L Device:R_Network08 RN1
U 1 1 617105FC
P 7050 3650
F 0 "RN1" V 6433 3650 50  0000 C CNN
F 1 "R_Network08" V 6524 3650 50  0000 C CNN
F 2 "Resistor_THT:R_Array_SIP9" V 7525 3650 50  0001 C CNN
F 3 "http://www.vishay.com/docs/31509/csc.pdf" H 7050 3650 50  0001 C CNN
	1    7050 3650
	0    1    1    0   
$EndComp
$Comp
L Device:R_Network08 RN2
U 1 1 6171089D
P 7400 4250
F 0 "RN2" V 6783 4250 50  0000 C CNN
F 1 "R_Network08" V 6874 4250 50  0000 C CNN
F 2 "Resistor_THT:R_Array_SIP9" V 7875 4250 50  0001 C CNN
F 3 "http://www.vishay.com/docs/31509/csc.pdf" H 7400 4250 50  0001 C CNN
	1    7400 4250
	0    1    1    0   
$EndComp
$Comp
L power:+5V #PWR0121
U 1 1 61720C9D
P 7600 3850
F 0 "#PWR0121" H 7600 3700 50  0001 C CNN
F 1 "+5V" H 7615 4023 50  0000 C CNN
F 2 "" H 7600 3850 50  0001 C CNN
F 3 "" H 7600 3850 50  0001 C CNN
	1    7600 3850
	0    1    1    0   
$EndComp
Wire Wire Line
	1000 2350 2250 2350
Wire Wire Line
	6650 4150 7200 4150
Wire Wire Line
	6550 4250 7200 4250
Wire Wire Line
	6450 4350 7200 4350
Wire Wire Line
	6350 4450 7200 4450
Wire Wire Line
	6250 4550 7200 4550
$EndSCHEMATC
