EESchema Schematic File Version 4
EELAYER 26 0
EELAYER END
$Descr A4 11693 8268
encoding utf-8
Sheet 1 1
Title ""
Date ""
Rev ""
Comp ""
Comment1 ""
Comment2 ""
Comment3 ""
Comment4 ""
$EndDescr
$Comp
L Connector:Conn_01x02_Male J1
U 1 1 61709D1F
P 3500 1700
F 0 "J1" H 3606 1787 50  0000 C CNN
F 1 "Conn_01x02_Male" H 3606 1787 50  0001 C CNN
F 2 "Connector_JST:JST_XH_B02B-XH-A_1x02_P2.50mm_Vertical" H 3500 1700 50  0001 C CNN
F 3 "~" H 3500 1700 50  0001 C CNN
	1    3500 1700
	1    0    0    -1  
$EndComp
$Comp
L Connector:Conn_01x02_Male J2
U 1 1 61709E10
P 3500 1900
F 0 "J2" H 3606 1987 50  0000 C CNN
F 1 "Conn_01x02_Male" H 3606 1987 50  0001 C CNN
F 2 "Connector_JST:JST_XH_B02B-XH-A_1x02_P2.50mm_Vertical" H 3500 1900 50  0001 C CNN
F 3 "~" H 3500 1900 50  0001 C CNN
	1    3500 1900
	1    0    0    -1  
$EndComp
$Comp
L Connector:Conn_01x02_Male J3
U 1 1 61709E29
P 3500 2100
F 0 "J3" H 3606 2187 50  0000 C CNN
F 1 "Conn_01x02_Male" H 3606 2187 50  0001 C CNN
F 2 "Connector_JST:JST_XH_B02B-XH-A_1x02_P2.50mm_Vertical" H 3500 2100 50  0001 C CNN
F 3 "~" H 3500 2100 50  0001 C CNN
	1    3500 2100
	1    0    0    -1  
$EndComp
$Comp
L Connector:Conn_01x02_Male J4
U 1 1 61709E40
P 3500 2300
F 0 "J4" H 3606 2387 50  0000 C CNN
F 1 "Conn_01x02_Male" H 3606 2387 50  0001 C CNN
F 2 "Connector_JST:JST_XH_B02B-XH-A_1x02_P2.50mm_Vertical" H 3500 2300 50  0001 C CNN
F 3 "~" H 3500 2300 50  0001 C CNN
	1    3500 2300
	1    0    0    -1  
$EndComp
$Comp
L Connector:Conn_01x02_Male J5
U 1 1 61709EFF
P 3500 2500
F 0 "J5" H 3606 2587 50  0000 C CNN
F 1 "Conn_01x02_Male" H 3606 2587 50  0001 C CNN
F 2 "Connector_JST:JST_XH_B02B-XH-A_1x02_P2.50mm_Vertical" H 3500 2500 50  0001 C CNN
F 3 "~" H 3500 2500 50  0001 C CNN
	1    3500 2500
	1    0    0    -1  
$EndComp
$Comp
L power:+5V #PWR0101
U 1 1 61709F50
P 3700 1700
F 0 "#PWR0101" H 3700 1550 50  0001 C CNN
F 1 "+5V" V 3715 1828 50  0000 L CNN
F 2 "" H 3700 1700 50  0001 C CNN
F 3 "" H 3700 1700 50  0001 C CNN
	1    3700 1700
	0    1    1    0   
$EndComp
$Comp
L power:+5V #PWR0102
U 1 1 61709FC1
P 3700 1900
F 0 "#PWR0102" H 3700 1750 50  0001 C CNN
F 1 "+5V" V 3715 2028 50  0000 L CNN
F 2 "" H 3700 1900 50  0001 C CNN
F 3 "" H 3700 1900 50  0001 C CNN
	1    3700 1900
	0    1    1    0   
$EndComp
$Comp
L power:+5V #PWR0103
U 1 1 61709FD1
P 3700 2100
F 0 "#PWR0103" H 3700 1950 50  0001 C CNN
F 1 "+5V" V 3715 2228 50  0000 L CNN
F 2 "" H 3700 2100 50  0001 C CNN
F 3 "" H 3700 2100 50  0001 C CNN
	1    3700 2100
	0    1    1    0   
$EndComp
$Comp
L power:+5V #PWR0104
U 1 1 61709FE1
P 3700 2300
F 0 "#PWR0104" H 3700 2150 50  0001 C CNN
F 1 "+5V" V 3715 2428 50  0000 L CNN
F 2 "" H 3700 2300 50  0001 C CNN
F 3 "" H 3700 2300 50  0001 C CNN
	1    3700 2300
	0    1    1    0   
$EndComp
$Comp
L power:+5V #PWR0105
U 1 1 61709FF1
P 3700 2500
F 0 "#PWR0105" H 3700 2350 50  0001 C CNN
F 1 "+5V" V 3715 2628 50  0000 L CNN
F 2 "" H 3700 2500 50  0001 C CNN
F 3 "" H 3700 2500 50  0001 C CNN
	1    3700 2500
	0    1    1    0   
$EndComp
$Comp
L power:GND #PWR0106
U 1 1 6170A082
P 3700 2200
F 0 "#PWR0106" H 3700 1950 50  0001 C CNN
F 1 "GND" V 3705 2072 50  0000 R CNN
F 2 "" H 3700 2200 50  0001 C CNN
F 3 "" H 3700 2200 50  0001 C CNN
	1    3700 2200
	0    -1   -1   0   
$EndComp
$Comp
L power:GND #PWR0107
U 1 1 6170A0E4
P 3700 2000
F 0 "#PWR0107" H 3700 1750 50  0001 C CNN
F 1 "GND" V 3705 1872 50  0000 R CNN
F 2 "" H 3700 2000 50  0001 C CNN
F 3 "" H 3700 2000 50  0001 C CNN
	1    3700 2000
	0    -1   -1   0   
$EndComp
$Comp
L power:GND #PWR0108
U 1 1 6170A0F4
P 3700 1800
F 0 "#PWR0108" H 3700 1550 50  0001 C CNN
F 1 "GND" V 3705 1672 50  0000 R CNN
F 2 "" H 3700 1800 50  0001 C CNN
F 3 "" H 3700 1800 50  0001 C CNN
	1    3700 1800
	0    -1   -1   0   
$EndComp
$Comp
L power:GND #PWR0109
U 1 1 6170A113
P 3700 2400
F 0 "#PWR0109" H 3700 2150 50  0001 C CNN
F 1 "GND" V 3705 2272 50  0000 R CNN
F 2 "" H 3700 2400 50  0001 C CNN
F 3 "" H 3700 2400 50  0001 C CNN
	1    3700 2400
	0    -1   -1   0   
$EndComp
$Comp
L power:GND #PWR0110
U 1 1 6170A123
P 3700 2600
F 0 "#PWR0110" H 3700 2350 50  0001 C CNN
F 1 "GND" V 3705 2472 50  0000 R CNN
F 2 "" H 3700 2600 50  0001 C CNN
F 3 "" H 3700 2600 50  0001 C CNN
	1    3700 2600
	0    -1   -1   0   
$EndComp
$EndSCHEMATC
